0:0:0:0:0:0:0:1 - - [25/Nov/2018:01:44:30 +0900] "GET /dbconn/form1.html HTTP/1.1" 200 847
0:0:0:0:0:0:0:1 - - [25/Nov/2018:01:49:45 +0900] "GET /dbconn/form1.html HTTP/1.1" 200 958
0:0:0:0:0:0:0:1 - - [25/Nov/2018:01:49:45 +0900] "GET /favicon.ico HTTP/1.1" 200 21630
0:0:0:0:0:0:0:1 - - [25/Nov/2018:01:50:42 +0900] "GET /dbconn/form1.html HTTP/1.1" 200 947
0:0:0:0:0:0:0:1 - - [25/Nov/2018:01:50:42 +0900] "GET /favicon.ico HTTP/1.1" 200 21630
0:0:0:0:0:0:0:1 - - [25/Nov/2018:01:50:54 +0900] "GET /dbconn/form1.html HTTP/1.1" 200 959
0:0:0:0:0:0:0:1 - - [25/Nov/2018:01:50:54 +0900] "GET /favicon.ico HTTP/1.1" 200 21630
0:0:0:0:0:0:0:1 - - [25/Nov/2018:01:50:55 +0900] "GET /dbconn/form1.html HTTP/1.1" 304 -
0:0:0:0:0:0:0:1 - - [25/Nov/2018:01:50:55 +0900] "GET /favicon.ico HTTP/1.1" 200 21630
0:0:0:0:0:0:0:1 - - [25/Nov/2018:01:50:55 +0900] "GET /dbconn/form1.html HTTP/1.1" 304 -
0:0:0:0:0:0:0:1 - - [25/Nov/2018:01:50:55 +0900] "GET /favicon.ico HTTP/1.1" 200 21630
0:0:0:0:0:0:0:1 - - [25/Nov/2018:01:50:55 +0900] "GET /dbconn/form1.html HTTP/1.1" 304 -
0:0:0:0:0:0:0:1 - - [25/Nov/2018:01:50:55 +0900] "GET /favicon.ico HTTP/1.1" 200 21630
0:0:0:0:0:0:0:1 - - [25/Nov/2018:01:54:26 +0900] "GET /dbconn/form1.html HTTP/1.1" 200 1169
0:0:0:0:0:0:0:1 - - [25/Nov/2018:01:54:26 +0900] "GET /favicon.ico HTTP/1.1" 200 21630
0:0:0:0:0:0:0:1 - - [25/Nov/2018:01:54:38 +0900] "GET /dbconn/form1.html HTTP/1.1" 200 1169
0:0:0:0:0:0:0:1 - - [25/Nov/2018:01:54:38 +0900] "GET /favicon.ico HTTP/1.1" 200 21630
0:0:0:0:0:0:0:1 - - [25/Nov/2018:01:54:50 +0900] "GET /dbconn/form1.html HTTP/1.1" 200 1169
0:0:0:0:0:0:0:1 - - [25/Nov/2018:01:54:50 +0900] "GET /favicon.ico HTTP/1.1" 200 21630
0:0:0:0:0:0:0:1 - - [25/Nov/2018:01:54:53 +0900] "GET /dbconn/form1.html HTTP/1.1" 304 -
0:0:0:0:0:0:0:1 - - [25/Nov/2018:01:54:53 +0900] "GET /favicon.ico HTTP/1.1" 200 21630
0:0:0:0:0:0:0:1 - - [25/Nov/2018:01:55:02 +0900] "GET /dbconn/form1.html HTTP/1.1" 200 1169
0:0:0:0:0:0:0:1 - - [25/Nov/2018:01:55:02 +0900] "GET /favicon.ico HTTP/1.1" 200 21630
0:0:0:0:0:0:0:1 - - [25/Nov/2018:01:55:03 +0900] "GET /dbconn/form1.html HTTP/1.1" 304 -
0:0:0:0:0:0:0:1 - - [25/Nov/2018:01:55:03 +0900] "GET /favicon.ico HTTP/1.1" 200 21630
0:0:0:0:0:0:0:1 - - [25/Nov/2018:01:55:05 +0900] "GET /dbconn/form1.html HTTP/1.1" 304 -
0:0:0:0:0:0:0:1 - - [25/Nov/2018:01:55:05 +0900] "GET /favicon.ico HTTP/1.1" 200 21630
0:0:0:0:0:0:0:1 - - [25/Nov/2018:01:55:06 +0900] "GET /dbconn/form1.html HTTP/1.1" 304 -
0:0:0:0:0:0:0:1 - - [25/Nov/2018:01:55:06 +0900] "GET /favicon.ico HTTP/1.1" 200 21630
0:0:0:0:0:0:0:1 - - [25/Nov/2018:01:55:06 +0900] "GET /dbconn/form1.html HTTP/1.1" 304 -
0:0:0:0:0:0:0:1 - - [25/Nov/2018:01:55:06 +0900] "GET /favicon.ico HTTP/1.1" 200 21630
0:0:0:0:0:0:0:1 - - [25/Nov/2018:01:55:06 +0900] "GET /dbconn/form1.html HTTP/1.1" 304 -
0:0:0:0:0:0:0:1 - - [25/Nov/2018:01:55:06 +0900] "GET /favicon.ico HTTP/1.1" 200 21630
0:0:0:0:0:0:0:1 - - [25/Nov/2018:01:55:06 +0900] "GET /dbconn/form1.html HTTP/1.1" 304 -
0:0:0:0:0:0:0:1 - - [25/Nov/2018:01:55:06 +0900] "GET /favicon.ico HTTP/1.1" 200 21630
0:0:0:0:0:0:0:1 - - [25/Nov/2018:01:55:10 +0900] "GET /dbconn/form1.html HTTP/1.1" 200 1169
0:0:0:0:0:0:0:1 - - [25/Nov/2018:01:55:11 +0900] "GET /favicon.ico HTTP/1.1" 200 21630
0:0:0:0:0:0:0:1 - - [25/Nov/2018:01:55:24 +0900] "GET /dbconn/form1.html HTTP/1.1" 200 1169
0:0:0:0:0:0:0:1 - - [25/Nov/2018:01:55:24 +0900] "GET /favicon.ico HTTP/1.1" 200 21630
0:0:0:0:0:0:0:1 - - [25/Nov/2018:01:55:24 +0900] "GET /dbconn/form1.html HTTP/1.1" 304 -
0:0:0:0:0:0:0:1 - - [25/Nov/2018:01:55:24 +0900] "GET /favicon.ico HTTP/1.1" 200 21630
0:0:0:0:0:0:0:1 - - [25/Nov/2018:01:55:25 +0900] "GET /dbconn/form1.html HTTP/1.1" 304 -
0:0:0:0:0:0:0:1 - - [25/Nov/2018:01:55:25 +0900] "GET /favicon.ico HTTP/1.1" 200 21630
0:0:0:0:0:0:0:1 - - [25/Nov/2018:01:55:25 +0900] "GET /dbconn/form1.html HTTP/1.1" 304 -
0:0:0:0:0:0:0:1 - - [25/Nov/2018:01:55:25 +0900] "GET /favicon.ico HTTP/1.1" 200 21630
0:0:0:0:0:0:0:1 - - [25/Nov/2018:01:55:26 +0900] "GET /dbconn/form1.html HTTP/1.1" 304 -
0:0:0:0:0:0:0:1 - - [25/Nov/2018:01:55:26 +0900] "GET /favicon.ico HTTP/1.1" 200 21630
0:0:0:0:0:0:0:1 - - [25/Nov/2018:01:55:36 +0900] "GET /dbconn/form1.html HTTP/1.1" 200 1169
0:0:0:0:0:0:0:1 - - [25/Nov/2018:01:55:36 +0900] "GET /favicon.ico HTTP/1.1" 200 21630
0:0:0:0:0:0:0:1 - - [25/Nov/2018:01:59:45 +0900] "GET /dbconn/form1.html HTTP/1.1" 200 1427
0:0:0:0:0:0:0:1 - - [25/Nov/2018:01:59:45 +0900] "GET /favicon.ico HTTP/1.1" 200 21630
0:0:0:0:0:0:0:1 - - [25/Nov/2018:02:00:49 +0900] "GET /dbconn/form1.html HTTP/1.1" 200 1510
0:0:0:0:0:0:0:1 - - [25/Nov/2018:02:00:49 +0900] "GET /favicon.ico HTTP/1.1" 200 21630
0:0:0:0:0:0:0:1 - - [25/Nov/2018:02:00:50 +0900] "GET /dbconn/form1.html HTTP/1.1" 304 -
0:0:0:0:0:0:0:1 - - [25/Nov/2018:02:00:50 +0900] "GET /favicon.ico HTTP/1.1" 200 21630
0:0:0:0:0:0:0:1 - - [25/Nov/2018:02:00:50 +0900] "GET /dbconn/form1.html HTTP/1.1" 304 -
0:0:0:0:0:0:0:1 - - [25/Nov/2018:02:00:50 +0900] "GET /favicon.ico HTTP/1.1" 200 21630
0:0:0:0:0:0:0:1 - - [25/Nov/2018:02:00:51 +0900] "GET /dbconn/form1.html HTTP/1.1" 304 -
0:0:0:0:0:0:0:1 - - [25/Nov/2018:02:00:51 +0900] "GET /favicon.ico HTTP/1.1" 200 21630
0:0:0:0:0:0:0:1 - - [25/Nov/2018:02:00:51 +0900] "GET /dbconn/form1.html HTTP/1.1" 304 -
0:0:0:0:0:0:0:1 - - [25/Nov/2018:02:00:51 +0900] "GET /favicon.ico HTTP/1.1" 200 21630
0:0:0:0:0:0:0:1 - - [25/Nov/2018:02:00:51 +0900] "GET /dbconn/form1.html HTTP/1.1" 304 -
0:0:0:0:0:0:0:1 - - [25/Nov/2018:02:00:51 +0900] "GET /favicon.ico HTTP/1.1" 200 21630
0:0:0:0:0:0:0:1 - - [25/Nov/2018:02:00:56 +0900] "GET /dbconn/form1.html HTTP/1.1" 304 -
0:0:0:0:0:0:0:1 - - [25/Nov/2018:02:00:56 +0900] "GET /favicon.ico HTTP/1.1" 200 21630
0:0:0:0:0:0:0:1 - - [25/Nov/2018:02:00:56 +0900] "GET /dbconn/form1.html HTTP/1.1" 304 -
0:0:0:0:0:0:0:1 - - [25/Nov/2018:02:00:56 +0900] "GET /favicon.ico HTTP/1.1" 200 21630
0:0:0:0:0:0:0:1 - - [25/Nov/2018:02:00:56 +0900] "GET /dbconn/form1.html HTTP/1.1" 304 -
0:0:0:0:0:0:0:1 - - [25/Nov/2018:02:00:56 +0900] "GET /favicon.ico HTTP/1.1" 200 21630
0:0:0:0:0:0:0:1 - - [25/Nov/2018:02:00:56 +0900] "GET /dbconn/form1.html HTTP/1.1" 304 -
0:0:0:0:0:0:0:1 - - [25/Nov/2018:02:00:56 +0900] "GET /favicon.ico HTTP/1.1" 200 21630
0:0:0:0:0:0:0:1 - - [25/Nov/2018:02:01:06 +0900] "GET /dbconn/form1.html HTTP/1.1" 200 1500
0:0:0:0:0:0:0:1 - - [25/Nov/2018:02:01:06 +0900] "GET /favicon.ico HTTP/1.1" 200 21630
0:0:0:0:0:0:0:1 - - [25/Nov/2018:02:01:07 +0900] "GET /dbconn/form1.html HTTP/1.1" 304 -
0:0:0:0:0:0:0:1 - - [25/Nov/2018:02:01:07 +0900] "GET /favicon.ico HTTP/1.1" 200 21630
0:0:0:0:0:0:0:1 - - [25/Nov/2018:02:01:07 +0900] "GET /dbconn/form1.html HTTP/1.1" 304 -
0:0:0:0:0:0:0:1 - - [25/Nov/2018:02:01:07 +0900] "GET /favicon.ico HTTP/1.1" 200 21630
0:0:0:0:0:0:0:1 - - [25/Nov/2018:02:01:25 +0900] "GET /dbconn/form1.html HTTP/1.1" 200 1500
0:0:0:0:0:0:0:1 - - [25/Nov/2018:02:01:25 +0900] "GET /favicon.ico HTTP/1.1" 200 21630
0:0:0:0:0:0:0:1 - - [25/Nov/2018:02:01:51 +0900] "GET /dbconn/form1.html HTTP/1.1" 200 1494
0:0:0:0:0:0:0:1 - - [25/Nov/2018:02:01:51 +0900] "GET /favicon.ico HTTP/1.1" 200 21630
0:0:0:0:0:0:0:1 - - [25/Nov/2018:02:02:11 +0900] "GET /dbconn/form1.html HTTP/1.1" 200 1488
0:0:0:0:0:0:0:1 - - [25/Nov/2018:02:02:11 +0900] "GET /favicon.ico HTTP/1.1" 200 21630
0:0:0:0:0:0:0:1 - - [25/Nov/2018:02:02:11 +0900] "GET /dbconn/form1.html HTTP/1.1" 304 -
0:0:0:0:0:0:0:1 - - [25/Nov/2018:02:02:11 +0900] "GET /favicon.ico HTTP/1.1" 200 21630
0:0:0:0:0:0:0:1 - - [25/Nov/2018:02:02:11 +0900] "GET /dbconn/form1.html HTTP/1.1" 304 -
0:0:0:0:0:0:0:1 - - [25/Nov/2018:02:02:11 +0900] "GET /favicon.ico HTTP/1.1" 200 21630
0:0:0:0:0:0:0:1 - - [25/Nov/2018:02:02:11 +0900] "GET /dbconn/form1.html HTTP/1.1" 304 -
0:0:0:0:0:0:0:1 - - [25/Nov/2018:02:02:12 +0900] "GET /favicon.ico HTTP/1.1" 200 21630
0:0:0:0:0:0:0:1 - - [25/Nov/2018:02:02:12 +0900] "GET /dbconn/form1.html HTTP/1.1" 304 -
0:0:0:0:0:0:0:1 - - [25/Nov/2018:02:02:12 +0900] "GET /favicon.ico HTTP/1.1" 200 21630
0:0:0:0:0:0:0:1 - - [25/Nov/2018:02:02:17 +0900] "GET /dbconn/form1.html HTTP/1.1" 304 -
0:0:0:0:0:0:0:1 - - [25/Nov/2018:02:02:18 +0900] "POST /dbconn/insert.jsp HTTP/1.1" 404 1095
0:0:0:0:0:0:0:1 - - [25/Nov/2018:02:02:39 +0900] "GET /dbconn/form1.html HTTP/1.1" 200 1478
0:0:0:0:0:0:0:1 - - [25/Nov/2018:02:02:39 +0900] "GET /favicon.ico HTTP/1.1" 200 21630
0:0:0:0:0:0:0:1 - - [25/Nov/2018:02:02:39 +0900] "GET /dbconn/form1.html HTTP/1.1" 304 -
0:0:0:0:0:0:0:1 - - [25/Nov/2018:02:02:39 +0900] "GET /favicon.ico HTTP/1.1" 200 21630
0:0:0:0:0:0:0:1 - - [25/Nov/2018:02:02:40 +0900] "GET /dbconn/form1.html HTTP/1.1" 304 -
0:0:0:0:0:0:0:1 - - [25/Nov/2018:02:02:40 +0900] "GET /favicon.ico HTTP/1.1" 200 21630
0:0:0:0:0:0:0:1 - - [25/Nov/2018:02:03:08 +0900] "GET /dbconn/form1.html HTTP/1.1" 200 1484
0:0:0:0:0:0:0:1 - - [25/Nov/2018:02:03:08 +0900] "GET /favicon.ico HTTP/1.1" 200 21630
0:0:0:0:0:0:0:1 - - [25/Nov/2018:02:03:08 +0900] "GET /dbconn/form1.html HTTP/1.1" 304 -
0:0:0:0:0:0:0:1 - - [25/Nov/2018:02:03:08 +0900] "GET /favicon.ico HTTP/1.1" 200 21630
0:0:0:0:0:0:0:1 - - [25/Nov/2018:02:03:08 +0900] "GET /dbconn/form1.html HTTP/1.1" 304 -
0:0:0:0:0:0:0:1 - - [25/Nov/2018:02:03:09 +0900] "GET /favicon.ico HTTP/1.1" 200 21630
0:0:0:0:0:0:0:1 - - [25/Nov/2018:02:03:09 +0900] "GET /dbconn/form1.html HTTP/1.1" 304 -
0:0:0:0:0:0:0:1 - - [25/Nov/2018:02:03:09 +0900] "GET /favicon.ico HTTP/1.1" 200 21630
0:0:0:0:0:0:0:1 - - [25/Nov/2018:02:03:47 +0900] "GET /dbconn/form1.html HTTP/1.1" 200 1570
0:0:0:0:0:0:0:1 - - [25/Nov/2018:02:03:47 +0900] "GET /favicon.ico HTTP/1.1" 200 21630
0:0:0:0:0:0:0:1 - - [25/Nov/2018:02:03:47 +0900] "GET /dbconn/form1.html HTTP/1.1" 304 -
0:0:0:0:0:0:0:1 - - [25/Nov/2018:02:03:47 +0900] "GET /favicon.ico HTTP/1.1" 200 21630
0:0:0:0:0:0:0:1 - - [25/Nov/2018:02:03:47 +0900] "GET /dbconn/form1.html HTTP/1.1" 304 -
0:0:0:0:0:0:0:1 - - [25/Nov/2018:02:03:47 +0900] "GET /favicon.ico HTTP/1.1" 200 21630
0:0:0:0:0:0:0:1 - - [25/Nov/2018:02:04:12 +0900] "GET /dbconn/form1.html HTTP/1.1" 200 1478
0:0:0:0:0:0:0:1 - - [25/Nov/2018:02:04:12 +0900] "GET /favicon.ico HTTP/1.1" 200 21630
0:0:0:0:0:0:0:1 - - [25/Nov/2018:02:04:39 +0900] "GET /dbconn/form1.html HTTP/1.1" 200 1480
0:0:0:0:0:0:0:1 - - [25/Nov/2018:02:04:39 +0900] "GET /favicon.ico HTTP/1.1" 200 21630
0:0:0:0:0:0:0:1 - - [25/Nov/2018:02:04:39 +0900] "GET /dbconn/form1.html HTTP/1.1" 304 -
0:0:0:0:0:0:0:1 - - [25/Nov/2018:02:04:39 +0900] "GET /favicon.ico HTTP/1.1" 200 21630
0:0:0:0:0:0:0:1 - - [25/Nov/2018:02:05:01 +0900] "GET /dbconn/form1.html HTTP/1.1" 200 1476
0:0:0:0:0:0:0:1 - - [25/Nov/2018:02:05:02 +0900] "GET /favicon.ico HTTP/1.1" 200 21630
0:0:0:0:0:0:0:1 - - [25/Nov/2018:02:05:02 +0900] "GET /dbconn/form1.html HTTP/1.1" 304 -
0:0:0:0:0:0:0:1 - - [25/Nov/2018:02:05:02 +0900] "GET /favicon.ico HTTP/1.1" 200 21630
0:0:0:0:0:0:0:1 - - [25/Nov/2018:02:05:17 +0900] "GET /dbconn/form1.html HTTP/1.1" 200 1476
0:0:0:0:0:0:0:1 - - [25/Nov/2018:02:05:17 +0900] "GET /favicon.ico HTTP/1.1" 200 21630
0:0:0:0:0:0:0:1 - - [25/Nov/2018:02:05:43 +0900] "GET /dbconn/form1.html HTTP/1.1" 200 1477
0:0:0:0:0:0:0:1 - - [25/Nov/2018:02:05:43 +0900] "GET /favicon.ico HTTP/1.1" 200 21630
0:0:0:0:0:0:0:1 - - [25/Nov/2018:02:05:43 +0900] "GET /dbconn/form1.html HTTP/1.1" 304 -
0:0:0:0:0:0:0:1 - - [25/Nov/2018:02:05:43 +0900] "GET /favicon.ico HTTP/1.1" 200 21630
0:0:0:0:0:0:0:1 - - [25/Nov/2018:02:06:32 +0900] "GET /dbconn/form1.html HTTP/1.1" 200 1490
0:0:0:0:0:0:0:1 - - [25/Nov/2018:02:06:32 +0900] "GET /favicon.ico HTTP/1.1" 200 21630
0:0:0:0:0:0:0:1 - - [25/Nov/2018:02:06:32 +0900] "GET /dbconn/form1.html HTTP/1.1" 304 -
0:0:0:0:0:0:0:1 - - [25/Nov/2018:02:06:32 +0900] "GET /favicon.ico HTTP/1.1" 200 21630
0:0:0:0:0:0:0:1 - - [25/Nov/2018:02:06:32 +0900] "GET /dbconn/form1.html HTTP/1.1" 304 -
0:0:0:0:0:0:0:1 - - [25/Nov/2018:02:06:33 +0900] "GET /favicon.ico HTTP/1.1" 200 21630
0:0:0:0:0:0:0:1 - - [25/Nov/2018:02:06:33 +0900] "GET /dbconn/form1.html HTTP/1.1" 304 -
0:0:0:0:0:0:0:1 - - [25/Nov/2018:02:06:33 +0900] "GET /favicon.ico HTTP/1.1" 200 21630
0:0:0:0:0:0:0:1 - - [25/Nov/2018:02:06:51 +0900] "GET /dbconn/form1.html HTTP/1.1" 200 1516
0:0:0:0:0:0:0:1 - - [25/Nov/2018:02:06:51 +0900] "GET /favicon.ico HTTP/1.1" 200 21630
0:0:0:0:0:0:0:1 - - [25/Nov/2018:02:06:52 +0900] "GET /dbconn/form1.html HTTP/1.1" 304 -
0:0:0:0:0:0:0:1 - - [25/Nov/2018:02:06:52 +0900] "GET /favicon.ico HTTP/1.1" 200 21630
0:0:0:0:0:0:0:1 - - [25/Nov/2018:02:06:52 +0900] "GET /dbconn/form1.html HTTP/1.1" 304 -
0:0:0:0:0:0:0:1 - - [25/Nov/2018:02:06:52 +0900] "GET /favicon.ico HTTP/1.1" 200 21630
0:0:0:0:0:0:0:1 - - [25/Nov/2018:02:07:40 +0900] "GET /dbconn/form1.html HTTP/1.1" 200 1492
0:0:0:0:0:0:0:1 - - [25/Nov/2018:02:07:40 +0900] "GET /favicon.ico HTTP/1.1" 200 21630
0:0:0:0:0:0:0:1 - - [25/Nov/2018:02:07:41 +0900] "GET /dbconn/form1.html HTTP/1.1" 304 -
0:0:0:0:0:0:0:1 - - [25/Nov/2018:02:07:41 +0900] "GET /favicon.ico HTTP/1.1" 200 21630
0:0:0:0:0:0:0:1 - - [25/Nov/2018:02:07:41 +0900] "GET /dbconn/form1.html HTTP/1.1" 304 -
0:0:0:0:0:0:0:1 - - [25/Nov/2018:02:07:41 +0900] "GET /favicon.ico HTTP/1.1" 200 21630
0:0:0:0:0:0:0:1 - - [25/Nov/2018:02:07:41 +0900] "GET /dbconn/form1.html HTTP/1.1" 304 -
0:0:0:0:0:0:0:1 - - [25/Nov/2018:02:07:41 +0900] "GET /favicon.ico HTTP/1.1" 200 21630
0:0:0:0:0:0:0:1 - - [25/Nov/2018:02:07:41 +0900] "GET /dbconn/form1.html HTTP/1.1" 304 -
0:0:0:0:0:0:0:1 - - [25/Nov/2018:02:07:41 +0900] "GET /favicon.ico HTTP/1.1" 200 21630
0:0:0:0:0:0:0:1 - - [25/Nov/2018:02:07:48 +0900] "GET /dbconn/form1.html HTTP/1.1" 200 1489
0:0:0:0:0:0:0:1 - - [25/Nov/2018:02:07:48 +0900] "GET /favicon.ico HTTP/1.1" 200 21630
0:0:0:0:0:0:0:1 - - [25/Nov/2018:02:07:48 +0900] "GET /dbconn/form1.html HTTP/1.1" 304 -
0:0:0:0:0:0:0:1 - - [25/Nov/2018:02:07:49 +0900] "GET /favicon.ico HTTP/1.1" 200 21630
0:0:0:0:0:0:0:1 - - [25/Nov/2018:02:07:49 +0900] "GET /dbconn/form1.html HTTP/1.1" 304 -
0:0:0:0:0:0:0:1 - - [25/Nov/2018:02:07:49 +0900] "GET /favicon.ico HTTP/1.1" 200 21630
0:0:0:0:0:0:0:1 - - [25/Nov/2018:02:07:49 +0900] "GET /dbconn/form1.html HTTP/1.1" 304 -
0:0:0:0:0:0:0:1 - - [25/Nov/2018:02:07:49 +0900] "GET /favicon.ico HTTP/1.1" 200 21630
0:0:0:0:0:0:0:1 - - [25/Nov/2018:02:07:49 +0900] "GET /dbconn/form1.html HTTP/1.1" 304 -
0:0:0:0:0:0:0:1 - - [25/Nov/2018:02:07:49 +0900] "GET /favicon.ico HTTP/1.1" 200 21630
0:0:0:0:0:0:0:1 - - [25/Nov/2018:02:08:46 +0900] "GET /dbconn/form1.html HTTP/1.1" 200 1511
0:0:0:0:0:0:0:1 - - [25/Nov/2018:02:08:47 +0900] "GET /favicon.ico HTTP/1.1" 200 21630
0:0:0:0:0:0:0:1 - - [25/Nov/2018:02:09:20 +0900] "GET /dbconn/form1.html HTTP/1.1" 200 1526
0:0:0:0:0:0:0:1 - - [25/Nov/2018:02:09:21 +0900] "GET /favicon.ico HTTP/1.1" 200 21630
0:0:0:0:0:0:0:1 - - [25/Nov/2018:02:25:30 +0900] "GET /dbconn/form1.html HTTP/1.1" 200 1525
0:0:0:0:0:0:0:1 - - [25/Nov/2018:02:25:30 +0900] "GET /favicon.ico HTTP/1.1" 200 21630
0:0:0:0:0:0:0:1 - - [25/Nov/2018:02:26:04 +0900] "POST /dbconn/insert.jsp HTTP/1.1" 500 4990
0:0:0:0:0:0:0:1 - - [25/Nov/2018:02:28:53 +0900] "POST /dbconn/insert.jsp HTTP/1.1" 500 5023
0:0:0:0:0:0:0:1 - - [25/Nov/2018:02:28:53 +0900] "GET /favicon.ico HTTP/1.1" 200 21630
0:0:0:0:0:0:0:1 - - [25/Nov/2018:02:34:33 +0900] "POST /dbconn/insert.jsp HTTP/1.1" 500 5023
0:0:0:0:0:0:0:1 - - [25/Nov/2018:02:34:55 +0900] "POST /dbconn/insert.jsp HTTP/1.1" 500 5023
0:0:0:0:0:0:0:1 - - [25/Nov/2018:02:34:55 +0900] "GET /favicon.ico HTTP/1.1" 200 21630
0:0:0:0:0:0:0:1 - - [25/Nov/2018:02:35:05 +0900] "POST /dbconn/insert.jsp HTTP/1.1" 500 5023
0:0:0:0:0:0:0:1 - - [25/Nov/2018:02:36:26 +0900] "POST /dbconn/insert.jsp HTTP/1.1" 500 5743
0:0:0:0:0:0:0:1 - - [25/Nov/2018:02:36:26 +0900] "GET /favicon.ico HTTP/1.1" 200 21630
0:0:0:0:0:0:0:1 - - [25/Nov/2018:02:44:11 +0900] "GET /dbconn/test/form1.html HTTP/1.1" 304 -
0:0:0:0:0:0:0:1 - - [25/Nov/2018:02:44:16 +0900] "GET /dbconn/form1.html HTTP/1.1" 304 -
0:0:0:0:0:0:0:1 - - [25/Nov/2018:02:44:29 +0900] "POST /dbconn/insert.jsp HTTP/1.1" 500 5023
0:0:0:0:0:0:0:1 - - [25/Nov/2018:02:48:03 +0900] "POST /dbconn/insert.jsp HTTP/1.1" 200 434
0:0:0:0:0:0:0:1 - - [25/Nov/2018:02:48:16 +0900] "GET /dbconn/list2.jsp HTTP/1.1" 404 1094
0:0:0:0:0:0:0:1 - - [25/Nov/2018:02:50:05 +0900] "POST /dbconn/insert.jsp HTTP/1.1" 200 664
0:0:0:0:0:0:0:1 - - [25/Nov/2018:02:50:53 +0900] "POST /dbconn/insert.jsp HTTP/1.1" 200 617
0:0:0:0:0:0:0:1 - - [25/Nov/2018:03:00:04 +0900] "POST /dbconn/insert.jsp HTTP/1.1" 200 610
0:0:0:0:0:0:0:1 - - [25/Nov/2018:03:00:06 +0900] "GET /dbconn/list.jsp HTTP/1.1" 200 294
0:0:0:0:0:0:0:1 - - [25/Nov/2018:03:00:45 +0900] "GET /dbconn/list.jsp HTTP/1.1" 200 924
0:0:0:0:0:0:0:1 - - [25/Nov/2018:03:00:46 +0900] "GET /favicon.ico HTTP/1.1" 200 21630
0:0:0:0:0:0:0:1 - - [25/Nov/2018:03:01:06 +0900] "GET /dbconn/list.jsp HTTP/1.1" 200 940
0:0:0:0:0:0:0:1 - - [25/Nov/2018:03:01:06 +0900] "GET /favicon.ico HTTP/1.1" 200 21630
0:0:0:0:0:0:0:1 - - [25/Nov/2018:03:01:17 +0900] "GET /dbconn/list.jsp HTTP/1.1" 200 940
0:0:0:0:0:0:0:1 - - [25/Nov/2018:03:01:17 +0900] "GET /favicon.ico HTTP/1.1" 200 21630
0:0:0:0:0:0:0:1 - - [25/Nov/2018:15:14:56 +0900] "GET /dbconn/list.jsp HTTP/1.1" 200 940
0:0:0:0:0:0:0:1 - - [25/Nov/2018:15:14:56 +0900] "GET /favicon.ico HTTP/1.1" 200 21630
0:0:0:0:0:0:0:1 - - [25/Nov/2018:15:16:23 +0900] "POST /dbconn/insert.jsp HTTP/1.1" 200 628
0:0:0:0:0:0:0:1 - - [25/Nov/2018:15:16:25 +0900] "GET /dbconn/list.jsp HTTP/1.1" 200 1351
0:0:0:0:0:0:0:1 - - [25/Nov/2018:15:17:29 +0900] "GET /dbconn/detail.jsp?id=alangely HTTP/1.1" 404 1095
0:0:0:0:0:0:0:1 - - [25/Nov/2018:15:24:08 +0900] "GET /dbconn/list.jsp HTTP/1.1" 200 1351
0:0:0:0:0:0:0:1 - - [25/Nov/2018:15:24:08 +0900] "GET /favicon.ico HTTP/1.1" 200 21630
0:0:0:0:0:0:0:1 - - [25/Nov/2018:15:24:09 +0900] "GET /dbconn/detail.jsp?id=alangely HTTP/1.1" 200 277
0:0:0:0:0:0:0:1 - - [25/Nov/2018:15:25:14 +0900] "GET /dbconn/detail.jsp?id=alangely HTTP/1.1" 200 277
0:0:0:0:0:0:0:1 - - [25/Nov/2018:15:25:15 +0900] "GET /favicon.ico HTTP/1.1" 200 21630
0:0:0:0:0:0:0:1 - - [25/Nov/2018:15:25:54 +0900] "GET /dbconn/detail.jsp?id=alangely HTTP/1.1" 200 277
0:0:0:0:0:0:0:1 - - [25/Nov/2018:15:25:54 +0900] "GET /favicon.ico HTTP/1.1" 200 21630
0:0:0:0:0:0:0:1 - - [25/Nov/2018:15:25:54 +0900] "GET /dbconn/detail.jsp?id=alangely HTTP/1.1" 200 277
0:0:0:0:0:0:0:1 - - [25/Nov/2018:15:25:54 +0900] "GET /favicon.ico HTTP/1.1" 200 21630
0:0:0:0:0:0:0:1 - - [25/Nov/2018:15:25:54 +0900] "GET /dbconn/detail.jsp?id=alangely HTTP/1.1" 200 277
0:0:0:0:0:0:0:1 - - [25/Nov/2018:15:25:54 +0900] "GET /favicon.ico HTTP/1.1" 200 21630
0:0:0:0:0:0:0:1 - - [25/Nov/2018:15:25:54 +0900] "GET /dbconn/detail.jsp?id=alangely HTTP/1.1" 200 277
0:0:0:0:0:0:0:1 - - [25/Nov/2018:15:25:54 +0900] "GET /favicon.ico HTTP/1.1" 200 21630
0:0:0:0:0:0:0:1 - - [25/Nov/2018:15:25:57 +0900] "GET /dbconn/detail.jsp?id=alangely HTTP/1.1" 200 277
0:0:0:0:0:0:0:1 - - [25/Nov/2018:15:26:01 +0900] "GET /dbconn/detail.jsp?id=song9325 HTTP/1.1" 200 277
0:0:0:0:0:0:0:1 - - [25/Nov/2018:15:27:08 +0900] "GET /dbconn/detail.jsp?id=song9325 HTTP/1.1" 200 896
0:0:0:0:0:0:0:1 - - [25/Nov/2018:15:27:17 +0900] "GET /dbconn/detail.jsp?id=song9325 HTTP/1.1" 200 277
0:0:0:0:0:0:0:1 - - [25/Nov/2018:15:27:25 +0900] "GET /dbconn/detail.jsp?id=song9325 HTTP/1.1" 200 896
0:0:0:0:0:0:0:1 - - [25/Nov/2018:15:28:56 +0900] "GET /dbconn/list.jsp HTTP/1.1" 200 1399
0:0:0:0:0:0:0:1 - - [25/Nov/2018:15:28:56 +0900] "GET /favicon.ico HTTP/1.1" 200 21630
0:0:0:0:0:0:0:1 - - [25/Nov/2018:15:29:33 +0900] "GET /dbconn/list.jsp HTTP/1.1" 200 1415
0:0:0:0:0:0:0:1 - - [25/Nov/2018:15:29:33 +0900] "GET /favicon.ico HTTP/1.1" 200 21630
0:0:0:0:0:0:0:1 - - [25/Nov/2018:15:29:36 +0900] "GET /dbconn/detail.jsp?id=song9325 HTTP/1.1" 200 896
0:0:0:0:0:0:0:1 - - [25/Nov/2018:15:30:15 +0900] "GET /dbconn/list.jsp HTTP/1.1" 200 1415
0:0:0:0:0:0:0:1 - - [25/Nov/2018:15:33:53 +0900] "GET /dbconn/list.jsp HTTP/1.1" 200 1487
0:0:0:0:0:0:0:1 - - [25/Nov/2018:15:33:53 +0900] "GET /favicon.ico HTTP/1.1" 200 21630
0:0:0:0:0:0:0:1 - - [25/Nov/2018:15:34:08 +0900] "GET /dbconn/list.jsp HTTP/1.1" 200 1493
0:0:0:0:0:0:0:1 - - [25/Nov/2018:15:34:08 +0900] "GET /favicon.ico HTTP/1.1" 200 21630
0:0:0:0:0:0:0:1 - - [25/Nov/2018:15:43:34 +0900] "GET /dbconn/update.jsp HTTP/1.1" 500 4817
0:0:0:0:0:0:0:1 - - [25/Nov/2018:15:43:58 +0900] "GET /dbconn/update.jsp HTTP/1.1" 200 182
0:0:0:0:0:0:0:1 - - [25/Nov/2018:15:43:58 +0900] "GET /favicon.ico HTTP/1.1" 200 21630
0:0:0:0:0:0:0:1 - - [25/Nov/2018:15:43:59 +0900] "GET /dbconn/detail.jsp?pnum=null HTTP/1.1" 200 277
0:0:0:0:0:0:0:1 - - [25/Nov/2018:15:44:05 +0900] "GET /dbconn/update.jsp HTTP/1.1" 200 182
0:0:0:0:0:0:0:1 - - [25/Nov/2018:15:44:06 +0900] "GET /dbconn/detail.jsp?pnum=null HTTP/1.1" 200 277
0:0:0:0:0:0:0:1 - - [25/Nov/2018:16:43:54 +0900] "GET /dbconn/update.jsp HTTP/1.1" 200 182
0:0:0:0:0:0:0:1 - - [25/Nov/2018:16:43:55 +0900] "GET /dbconn/detail.jsp?pnum=null HTTP/1.1" 200 277
0:0:0:0:0:0:0:1 - - [25/Nov/2018:16:45:53 +0900] "GET /dbconn/update.jsp HTTP/1.1" 200 182
0:0:0:0:0:0:0:1 - - [25/Nov/2018:16:45:54 +0900] "GET /dbconn/detail.jsp?pnum=null HTTP/1.1" 200 277
0:0:0:0:0:0:0:1 - - [25/Nov/2018:16:46:13 +0900] "GET /dbconn/detail.jsp?pnum=null HTTP/1.1" 200 277
0:0:0:0:0:0:0:1 - - [25/Nov/2018:16:46:13 +0900] "GET /favicon.ico HTTP/1.1" 200 21630
0:0:0:0:0:0:0:1 - - [25/Nov/2018:16:46:15 +0900] "GET /dbconn/update.jsp HTTP/1.1" 200 180
0:0:0:0:0:0:0:1 - - [25/Nov/2018:16:46:16 +0900] "GET /dbconn/detail.jsp?id=null HTTP/1.1" 200 277
0:0:0:0:0:0:0:1 - - [25/Nov/2018:16:46:28 +0900] "GET /dbconn/update.jsp HTTP/1.1" 200 181
0:0:0:0:0:0:0:1 - - [25/Nov/2018:16:46:29 +0900] "GET /dbconn/detail.jsp?fid=null HTTP/1.1" 200 277
0:0:0:0:0:0:0:1 - - [25/Nov/2018:16:46:31 +0900] "GET /dbconn/list.jsp HTTP/1.1" 200 1493
0:0:0:0:0:0:0:1 - - [25/Nov/2018:16:53:37 +0900] "GET /dbconn/update.jsp HTTP/1.1" 200 181
0:0:0:0:0:0:0:1 - - [25/Nov/2018:16:53:38 +0900] "GET /dbconn/detail.jsp?fid=null HTTP/1.1" 200 277
0:0:0:0:0:0:0:1 - - [25/Nov/2018:16:53:41 +0900] "GET /dbconn/list.jsp HTTP/1.1" 200 1491
0:0:0:0:0:0:0:1 - - [25/Nov/2018:16:53:41 +0900] "GET /favicon.ico HTTP/1.1" 200 21630
0:0:0:0:0:0:0:1 - - [25/Nov/2018:16:53:43 +0900] "GET /dbconn/edit.jsp HTTP/1.1" 500 2913
0:0:0:0:0:0:0:1 - - [25/Nov/2018:16:55:42 +0900] "GET /dbconn/edit.jsp HTTP/1.1" 500 2913
0:0:0:0:0:0:0:1 - - [25/Nov/2018:16:55:42 +0900] "GET /favicon.ico HTTP/1.1" 200 21630
0:0:0:0:0:0:0:1 - - [25/Nov/2018:16:56:33 +0900] "GET /dbconn/edit.jsp HTTP/1.1" 200 234
0:0:0:0:0:0:0:1 - - [25/Nov/2018:16:56:33 +0900] "GET /favicon.ico HTTP/1.1" 200 21630
0:0:0:0:0:0:0:1 - - [25/Nov/2018:16:56:36 +0900] "GET /dbconn/edit.jsp HTTP/1.1" 200 234
0:0:0:0:0:0:0:1 - - [25/Nov/2018:16:56:36 +0900] "GET /favicon.ico HTTP/1.1" 200 21630
0:0:0:0:0:0:0:1 - - [25/Nov/2018:16:56:38 +0900] "GET /dbconn/edit.jsp HTTP/1.1" 200 234
0:0:0:0:0:0:0:1 - - [25/Nov/2018:16:56:58 +0900] "GET /dbconn/edit.jsp HTTP/1.1" 200 234
0:0:0:0:0:0:0:1 - - [25/Nov/2018:16:56:58 +0900] "GET /favicon.ico HTTP/1.1" 200 21630
0:0:0:0:0:0:0:1 - - [25/Nov/2018:16:57:02 +0900] "GET /dbconn/edit.jsp HTTP/1.1" 200 234
0:0:0:0:0:0:0:1 - - [25/Nov/2018:16:57:48 +0900] "GET /dbconn/list.jsp HTTP/1.1" 200 1455
0:0:0:0:0:0:0:1 - - [25/Nov/2018:16:57:48 +0900] "GET /favicon.ico HTTP/1.1" 200 21630
0:0:0:0:0:0:0:1 - - [25/Nov/2018:16:57:48 +0900] "GET /dbconn/list.jsp HTTP/1.1" 200 1455
0:0:0:0:0:0:0:1 - - [25/Nov/2018:16:57:48 +0900] "GET /favicon.ico HTTP/1.1" 200 21630
0:0:0:0:0:0:0:1 - - [25/Nov/2018:16:57:49 +0900] "GET /dbconn/detail.jsp?id=song9325 HTTP/1.1" 200 934
0:0:0:0:0:0:0:1 - - [25/Nov/2018:16:57:51 +0900] "GET /dbconn/edit.jsp HTTP/1.1" 200 234
0:0:0:0:0:0:0:1 - - [25/Nov/2018:16:58:45 +0900] "GET /dbconn/edit.jsp HTTP/1.1" 200 234
0:0:0:0:0:0:0:1 - - [25/Nov/2018:16:58:45 +0900] "GET /favicon.ico HTTP/1.1" 200 21630
0:0:0:0:0:0:0:1 - - [25/Nov/2018:16:58:46 +0900] "GET /dbconn/edit.jsp HTTP/1.1" 200 234
0:0:0:0:0:0:0:1 - - [25/Nov/2018:16:58:46 +0900] "GET /favicon.ico HTTP/1.1" 200 21630
0:0:0:0:0:0:0:1 - - [25/Nov/2018:16:58:48 +0900] "GET /dbconn/edit.jsp HTTP/1.1" 200 234
0:0:0:0:0:0:0:1 - - [25/Nov/2018:16:59:02 +0900] "GET /dbconn/edit.jsp HTTP/1.1" 200 234
0:0:0:0:0:0:0:1 - - [25/Nov/2018:16:59:02 +0900] "GET /favicon.ico HTTP/1.1" 200 21630
0:0:0:0:0:0:0:1 - - [25/Nov/2018:17:00:52 +0900] "GET /dbconn/edit.jsp HTTP/1.1" 200 234
0:0:0:0:0:0:0:1 - - [25/Nov/2018:17:00:54 +0900] "GET /dbconn/edit.jsp HTTP/1.1" 200 234
0:0:0:0:0:0:0:1 - - [25/Nov/2018:17:01:25 +0900] "GET /dbconn/edit.jsp HTTP/1.1" 200 234
0:0:0:0:0:0:0:1 - - [25/Nov/2018:17:01:25 +0900] "GET /favicon.ico HTTP/1.1" 200 21630
0:0:0:0:0:0:0:1 - - [25/Nov/2018:17:01:35 +0900] "GET /dbconn/edit.jsp HTTP/1.1" 200 234
0:0:0:0:0:0:0:1 - - [25/Nov/2018:17:01:35 +0900] "GET /favicon.ico HTTP/1.1" 200 21630
0:0:0:0:0:0:0:1 - - [25/Nov/2018:17:01:37 +0900] "GET /dbconn/list.jsp HTTP/1.1" 200 1455
0:0:0:0:0:0:0:1 - - [25/Nov/2018:17:01:40 +0900] "GET /dbconn/detail.jsp?id=song9325 HTTP/1.1" 500 2540
0:0:0:0:0:0:0:1 - - [25/Nov/2018:17:02:26 +0900] "GET /dbconn/detail.jsp?id=song9325 HTTP/1.1" 500 2536
0:0:0:0:0:0:0:1 - - [25/Nov/2018:17:02:26 +0900] "GET /favicon.ico HTTP/1.1" 200 21630
0:0:0:0:0:0:0:1 - - [25/Nov/2018:17:02:28 +0900] "GET /dbconn/detail.jsp?id=alangely HTTP/1.1" 200 915
0:0:0:0:0:0:0:1 - - [25/Nov/2018:17:02:31 +0900] "GET /dbconn/detail.jsp?id=song9325 HTTP/1.1" 500 2536
0:0:0:0:0:0:0:1 - - [25/Nov/2018:17:02:57 +0900] "GET /dbconn/detail.jsp?id=song9325 HTTP/1.1" 500 2536
0:0:0:0:0:0:0:1 - - [25/Nov/2018:17:02:57 +0900] "GET /favicon.ico HTTP/1.1" 200 21630
0:0:0:0:0:0:0:1 - - [25/Nov/2018:17:03:40 +0900] "GET /dbconn/list.jsp HTTP/1.1" 200 1457
0:0:0:0:0:0:0:1 - - [25/Nov/2018:17:03:40 +0900] "GET /favicon.ico HTTP/1.1" 200 21630
0:0:0:0:0:0:0:1 - - [25/Nov/2018:17:03:43 +0900] "GET /dbconn/list.jsp HTTP/1.1" 200 1457
0:0:0:0:0:0:0:1 - - [25/Nov/2018:17:03:43 +0900] "GET /favicon.ico HTTP/1.1" 200 21630
0:0:0:0:0:0:0:1 - - [25/Nov/2018:17:04:11 +0900] "GET /dbconn/detail.jsp?fid=song9325 HTTP/1.1" 500 2597
0:0:0:0:0:0:0:1 - - [25/Nov/2018:17:04:33 +0900] "GET /dbconn/detail.jsp?fid=song9325 HTTP/1.1" 500 2598
0:0:0:0:0:0:0:1 - - [25/Nov/2018:17:04:33 +0900] "GET /favicon.ico HTTP/1.1" 200 21630
0:0:0:0:0:0:0:1 - - [25/Nov/2018:17:05:20 +0900] "GET /dbconn/list.jsp HTTP/1.1" 200 1457
0:0:0:0:0:0:0:1 - - [25/Nov/2018:17:05:20 +0900] "GET /favicon.ico HTTP/1.1" 200 21630
0:0:0:0:0:0:0:1 - - [25/Nov/2018:17:05:21 +0900] "GET /dbconn/detail.jsp?fid=song9325 HTTP/1.1" 200 942
0:0:0:0:0:0:0:1 - - [25/Nov/2018:17:05:23 +0900] "GET /dbconn/detail.jsp?fid=alangely HTTP/1.1" 200 923
0:0:0:0:0:0:0:1 - - [25/Nov/2018:17:05:24 +0900] "GET /dbconn/detail.jsp?fid=song9325 HTTP/1.1" 200 942
0:0:0:0:0:0:0:1 - - [25/Nov/2018:17:05:25 +0900] "GET /dbconn/edit.jsp?id=song9325 HTTP/1.1" 200 500
0:0:0:0:0:0:0:1 - - [25/Nov/2018:17:05:29 +0900] "GET /dbconn/detail.jsp?fid=alangely HTTP/1.1" 200 923
0:0:0:0:0:0:0:1 - - [25/Nov/2018:17:05:30 +0900] "GET /dbconn/edit.jsp?id=alangely HTTP/1.1" 200 500
0:0:0:0:0:0:0:1 - - [25/Nov/2018:17:05:34 +0900] "GET /dbconn/detail.jsp?fid=song9325 HTTP/1.1" 200 942
0:0:0:0:0:0:0:1 - - [25/Nov/2018:17:05:54 +0900] "GET /dbconn/edit.jsp?id=song9325 HTTP/1.1" 200 234
0:0:0:0:0:0:0:1 - - [25/Nov/2018:17:06:26 +0900] "GET /dbconn/edit.jsp?id=song9325 HTTP/1.1" 200 234
0:0:0:0:0:0:0:1 - - [25/Nov/2018:17:06:34 +0900] "GET /dbconn/detail.jsp?fid=song9325 HTTP/1.1" 200 943
0:0:0:0:0:0:0:1 - - [25/Nov/2018:17:06:34 +0900] "GET /favicon.ico HTTP/1.1" 200 21630
0:0:0:0:0:0:0:1 - - [25/Nov/2018:17:06:35 +0900] "GET /dbconn/edit.jsp?fid=song9325 HTTP/1.1" 200 1699
0:0:0:0:0:0:0:1 - - [25/Nov/2018:17:07:21 +0900] "GET /dbconn/edit.jsp?fid=song9325 HTTP/1.1" 200 1744
0:0:0:0:0:0:0:1 - - [25/Nov/2018:17:07:21 +0900] "GET /favicon.ico HTTP/1.1" 200 21630
0:0:0:0:0:0:0:1 - - [25/Nov/2018:17:07:22 +0900] "GET /dbconn/edit.jsp?fid=song9325 HTTP/1.1" 200 1744
0:0:0:0:0:0:0:1 - - [25/Nov/2018:17:07:22 +0900] "GET /favicon.ico HTTP/1.1" 200 21630
0:0:0:0:0:0:0:1 - - [25/Nov/2018:17:07:22 +0900] "GET /dbconn/edit.jsp?fid=song9325 HTTP/1.1" 200 1744
0:0:0:0:0:0:0:1 - - [25/Nov/2018:17:07:22 +0900] "GET /favicon.ico HTTP/1.1" 200 21630
0:0:0:0:0:0:0:1 - - [25/Nov/2018:17:07:38 +0900] "POST /dbconn/update.jsp?fid=song9325 HTTP/1.1" 200 185
0:0:0:0:0:0:0:1 - - [25/Nov/2018:17:07:39 +0900] "GET /dbconn/detail.jsp?fid=song9325 HTTP/1.1" 200 943
0:0:0:0:0:0:0:1 - - [25/Nov/2018:17:07:44 +0900] "GET /dbconn/list.jsp HTTP/1.1" 200 1457
0:0:0:0:0:0:0:1 - - [25/Nov/2018:17:07:45 +0900] "GET /dbconn/detail.jsp?fid=song9325 HTTP/1.1" 200 943
0:0:0:0:0:0:0:1 - - [25/Nov/2018:17:07:46 +0900] "GET /dbconn/edit.jsp?fid=song9325 HTTP/1.1" 200 1744
0:0:0:0:0:0:0:1 - - [25/Nov/2018:17:07:54 +0900] "POST /dbconn/update.jsp?fid=song9325 HTTP/1.1" 200 185
0:0:0:0:0:0:0:1 - - [25/Nov/2018:17:07:55 +0900] "GET /dbconn/detail.jsp?fid=song9325 HTTP/1.1" 200 943
0:0:0:0:0:0:0:1 - - [25/Nov/2018:17:08:19 +0900] "GET /dbconn/list.jsp HTTP/1.1" 200 1457
0:0:0:0:0:0:0:1 - - [25/Nov/2018:17:08:21 +0900] "GET /dbconn/list.jsp HTTP/1.1" 200 1457
0:0:0:0:0:0:0:1 - - [25/Nov/2018:17:08:21 +0900] "GET /favicon.ico HTTP/1.1" 200 21630
0:0:0:0:0:0:0:1 - - [25/Nov/2018:17:08:22 +0900] "GET /dbconn/delete.jsp HTTP/1.1" 404 1095
0:0:0:0:0:0:0:1 - - [25/Nov/2018:17:08:25 +0900] "GET /dbconn/detail.jsp?fid=song9325 HTTP/1.1" 200 943
0:0:0:0:0:0:0:1 - - [25/Nov/2018:17:16:20 +0900] "GET /dbconn/edit.jsp?fid=song9325 HTTP/1.1" 200 1744
0:0:0:0:0:0:0:1 - - [25/Nov/2018:17:16:23 +0900] "POST /dbconn/update.jsp?fid=song9325 HTTP/1.1" 500 3820
0:0:0:0:0:0:0:1 - - [25/Nov/2018:17:17:41 +0900] "POST /dbconn/update.jsp?fid=song9325 HTTP/1.1" 500 3105
0:0:0:0:0:0:0:1 - - [25/Nov/2018:17:17:41 +0900] "GET /favicon.ico HTTP/1.1" 200 21630
0:0:0:0:0:0:0:1 - - [25/Nov/2018:17:18:33 +0900] "POST /dbconn/update.jsp?fid=song9325 HTTP/1.1" 500 2632
0:0:0:0:0:0:0:1 - - [25/Nov/2018:17:18:33 +0900] "GET /favicon.ico HTTP/1.1" 200 21630
0:0:0:0:0:0:0:1 - - [25/Nov/2018:17:19:58 +0900] "POST /dbconn/update.jsp?fid=song9325 HTTP/1.1" 500 2637
0:0:0:0:0:0:0:1 - - [25/Nov/2018:17:19:58 +0900] "GET /favicon.ico HTTP/1.1" 200 21630
0:0:0:0:0:0:0:1 - - [25/Nov/2018:17:20:30 +0900] "POST /dbconn/update.jsp?fid=song9325 HTTP/1.1" 200 505
0:0:0:0:0:0:0:1 - - [25/Nov/2018:17:20:30 +0900] "GET /favicon.ico HTTP/1.1" 200 21630
0:0:0:0:0:0:0:1 - - [25/Nov/2018:17:20:31 +0900] "GET /dbconn/detail.jsp HTTP/1.1" 200 320
0:0:0:0:0:0:0:1 - - [25/Nov/2018:17:20:33 +0900] "GET /dbconn/list.jsp HTTP/1.1" 200 1457
0:0:0:0:0:0:0:1 - - [25/Nov/2018:17:20:35 +0900] "GET /dbconn/detail.jsp?fid=song9325 HTTP/1.1" 200 943
0:0:0:0:0:0:0:1 - - [25/Nov/2018:17:20:37 +0900] "GET /dbconn/edit.jsp?fid=song9325 HTTP/1.1" 200 1744
0:0:0:0:0:0:0:1 - - [25/Nov/2018:17:20:42 +0900] "POST /dbconn/update.jsp?fid=song9325 HTTP/1.1" 200 494
0:0:0:0:0:0:0:1 - - [25/Nov/2018:17:20:43 +0900] "GET /dbconn/detail.jsp HTTP/1.1" 200 320
0:0:0:0:0:0:0:1 - - [25/Nov/2018:17:20:52 +0900] "GET /dbconn/list.jsp HTTP/1.1" 200 1457
0:0:0:0:0:0:0:1 - - [25/Nov/2018:17:20:53 +0900] "GET /dbconn/detail.jsp?fid=song9325 HTTP/1.1" 200 943
0:0:0:0:0:0:0:1 - - [25/Nov/2018:17:22:14 +0900] "GET /dbconn/edit.jsp?fid=song9325 HTTP/1.1" 200 1744
0:0:0:0:0:0:0:1 - - [25/Nov/2018:17:22:18 +0900] "POST /dbconn/update.jsp?fid=song9325 HTTP/1.1" 500 2723
0:0:0:0:0:0:0:1 - - [25/Nov/2018:17:23:45 +0900] "POST /dbconn/update.jsp?fid=song9325 HTTP/1.1" 200 744
0:0:0:0:0:0:0:1 - - [25/Nov/2018:17:23:45 +0900] "GET /favicon.ico HTTP/1.1" 200 21630
0:0:0:0:0:0:0:1 - - [25/Nov/2018:17:23:46 +0900] "GET /dbconn/detail.jsp?fid=song9325 HTTP/1.1" 200 943
0:0:0:0:0:0:0:1 - - [25/Nov/2018:17:23:48 +0900] "GET /dbconn/edit.jsp?fid=song9325 HTTP/1.1" 200 1744
0:0:0:0:0:0:0:1 - - [25/Nov/2018:17:23:52 +0900] "POST /dbconn/update.jsp?fid=song9325 HTTP/1.1" 200 746
0:0:0:0:0:0:0:1 - - [25/Nov/2018:17:23:53 +0900] "GET /dbconn/detail.jsp?fid=song9325 HTTP/1.1" 200 943
0:0:0:0:0:0:0:1 - - [25/Nov/2018:17:24:26 +0900] "GET /dbconn/edit.jsp?fid=song9325 HTTP/1.1" 200 1744
0:0:0:0:0:0:0:1 - - [25/Nov/2018:17:24:30 +0900] "POST /dbconn/update.jsp?fid=song9325 HTTP/1.1" 200 507
0:0:0:0:0:0:0:1 - - [25/Nov/2018:17:24:31 +0900] "GET /dbconn/detail.jsp?fid=song9325 HTTP/1.1" 200 943
0:0:0:0:0:0:0:1 - - [25/Nov/2018:17:24:41 +0900] "POST /dbconn/update.jsp?fid=song9325 HTTP/1.1" 200 507
0:0:0:0:0:0:0:1 - - [25/Nov/2018:17:24:44 +0900] "GET /dbconn/detail.jsp?fid=song9325 HTTP/1.1" 200 943
0:0:0:0:0:0:0:1 - - [25/Nov/2018:17:24:47 +0900] "GET /dbconn/edit.jsp?fid=song9325 HTTP/1.1" 200 1744
0:0:0:0:0:0:0:1 - - [25/Nov/2018:17:24:57 +0900] "POST /dbconn/update.jsp?fid=song9325 HTTP/1.1" 200 509
0:0:0:0:0:0:0:1 - - [25/Nov/2018:17:25:01 +0900] "GET /dbconn/detail.jsp?fid=song9325 HTTP/1.1" 200 943
0:0:0:0:0:0:0:1 - - [25/Nov/2018:17:25:02 +0900] "GET /dbconn/edit.jsp?fid=song9325 HTTP/1.1" 200 1744
0:0:0:0:0:0:0:1 - - [25/Nov/2018:17:25:05 +0900] "POST /dbconn/update.jsp?fid=song9325 HTTP/1.1" 200 510
0:0:0:0:0:0:0:1 - - [25/Nov/2018:17:25:08 +0900] "GET /dbconn/detail.jsp?fid=song9325 HTTP/1.1" 200 943
0:0:0:0:0:0:0:1 - - [25/Nov/2018:17:26:29 +0900] "GET /dbconn/edit.jsp?fid=song9325 HTTP/1.1" 200 1744
0:0:0:0:0:0:0:1 - - [25/Nov/2018:17:26:32 +0900] "POST /dbconn/update.jsp?fid=song9325 HTTP/1.1" 200 537
0:0:0:0:0:0:0:1 - - [25/Nov/2018:17:26:35 +0900] "GET /dbconn/detail.jsp?fid=song9325 HTTP/1.1" 200 950
0:0:0:0:0:0:0:1 - - [25/Nov/2018:17:26:48 +0900] "GET /dbconn/edit.jsp?fid=song9325 HTTP/1.1" 200 1751
0:0:0:0:0:0:0:1 - - [25/Nov/2018:17:26:54 +0900] "POST /dbconn/update.jsp?fid=song9325 HTTP/1.1" 200 533
0:0:0:0:0:0:0:1 - - [25/Nov/2018:17:26:58 +0900] "GET /dbconn/detail.jsp?fid=song9325 HTTP/1.1" 200 946
0:0:0:0:0:0:0:1 - - [25/Nov/2018:17:27:28 +0900] "GET /dbconn/list.jsp HTTP/1.1" 200 1460
0:0:0:0:0:0:0:1 - - [25/Nov/2018:17:27:30 +0900] "GET /dbconn/form1.html HTTP/1.1" 304 -
0:0:0:0:0:0:0:1 - - [25/Nov/2018:17:28:41 +0900] "POST /dbconn/insert.jsp HTTP/1.1" 200 653
0:0:0:0:0:0:0:1 - - [25/Nov/2018:17:28:43 +0900] "GET /dbconn/list.jsp HTTP/1.1" 200 1896
0:0:0:0:0:0:0:1 - - [25/Nov/2018:17:28:45 +0900] "GET /dbconn/detail.jsp?fid=Heysong HTTP/1.1" 200 943
0:0:0:0:0:0:0:1 - - [25/Nov/2018:17:30:45 +0900] "GET /dbconn/edit.jsp?fid=Heysong HTTP/1.1" 200 1744
0:0:0:0:0:0:0:1 - - [25/Nov/2018:17:30:50 +0900] "GET /dbconn/edit.jsp?fid=Heysong HTTP/1.1" 200 1744
0:0:0:0:0:0:0:1 - - [25/Nov/2018:17:30:55 +0900] "POST /dbconn/update.jsp?fid=Heysong HTTP/1.1" 200 602
0:0:0:0:0:0:0:1 - - [25/Nov/2018:17:30:58 +0900] "GET /dbconn/detail.jsp?fid=Heysong HTTP/1.1" 200 969
0:0:0:0:0:0:0:1 - - [25/Nov/2018:17:31:22 +0900] "GET /dbconn/list.jsp HTTP/1.1" 200 1922
0:0:0:0:0:0:0:1 - - [25/Nov/2018:17:34:20 +0900] "GET /dbconn/list.jsp HTTP/1.1" 200 1922
0:0:0:0:0:0:0:1 - - [25/Nov/2018:17:34:20 +0900] "GET /favicon.ico HTTP/1.1" 200 21630
0:0:0:0:0:0:0:1 - - [25/Nov/2018:17:34:21 +0900] "GET /dbconn/delete.jsp HTTP/1.1" 500 2671
0:0:0:0:0:0:0:1 - - [25/Nov/2018:17:36:45 +0900] "GET /dbconn/list.jsp HTTP/1.1" 200 1884
0:0:0:0:0:0:0:1 - - [25/Nov/2018:17:36:45 +0900] "GET /favicon.ico HTTP/1.1" 200 21630
0:0:0:0:0:0:0:1 - - [25/Nov/2018:17:36:45 +0900] "GET /dbconn/list.jsp HTTP/1.1" 200 1884
0:0:0:0:0:0:0:1 - - [25/Nov/2018:17:36:45 +0900] "GET /favicon.ico HTTP/1.1" 200 21630
0:0:0:0:0:0:0:1 - - [25/Nov/2018:17:36:46 +0900] "GET /dbconn/list.jsp HTTP/1.1" 200 1884
0:0:0:0:0:0:0:1 - - [25/Nov/2018:17:36:46 +0900] "GET /favicon.ico HTTP/1.1" 200 21630
0:0:0:0:0:0:0:1 - - [25/Nov/2018:17:36:46 +0900] "GET /dbconn/list.jsp HTTP/1.1" 200 1884
0:0:0:0:0:0:0:1 - - [25/Nov/2018:17:36:46 +0900] "GET /favicon.ico HTTP/1.1" 200 21630
0:0:0:0:0:0:0:1 - - [25/Nov/2018:17:36:48 +0900] "GET /dbconn/detail.jsp?fid=song9325 HTTP/1.1" 200 1000
0:0:0:0:0:0:0:1 - - [25/Nov/2018:17:36:49 +0900] "GET /dbconn/delete.jspfid=song9325 HTTP/1.1" 404 1107
0:0:0:0:0:0:0:1 - - [25/Nov/2018:17:37:04 +0900] "GET /dbconn/delete.jspfid=song9325 HTTP/1.1" 404 1107
0:0:0:0:0:0:0:1 - - [25/Nov/2018:17:37:04 +0900] "GET /favicon.ico HTTP/1.1" 200 21630
0:0:0:0:0:0:0:1 - - [25/Nov/2018:17:37:10 +0900] "GET /dbconn/detail.jsp?fid=song9325 HTTP/1.1" 200 1001
0:0:0:0:0:0:0:1 - - [25/Nov/2018:17:37:10 +0900] "GET /favicon.ico HTTP/1.1" 200 21630
0:0:0:0:0:0:0:1 - - [25/Nov/2018:17:37:11 +0900] "GET /dbconn/delete.jsp?fid=song9325 HTTP/1.1" 500 2671
0:0:0:0:0:0:0:1 - - [25/Nov/2018:17:37:51 +0900] "GET /dbconn/delete.jsp?fid=song9325 HTTP/1.1" 200 170
0:0:0:0:0:0:0:1 - - [25/Nov/2018:17:37:52 +0900] "GET /favicon.ico HTTP/1.1" 200 21630
0:0:0:0:0:0:0:1 - - [25/Nov/2018:17:37:53 +0900] "GET /dbconn/list.jsp HTTP/1.1" 200 1445
0:0:0:0:0:0:0:1 - - [25/Nov/2018:17:43:54 +0900] "GET /dbconn/Login.jsp HTTP/1.1" 404 1094
0:0:0:0:0:0:0:1 - - [25/Nov/2018:17:44:01 +0900] "GET /dbconn/Login.html HTTP/1.1" 200 676
0:0:0:0:0:0:0:1 - - [25/Nov/2018:17:45:10 +0900] "GET /dbconn/login.jsp HTTP/1.1" 200 471
0:0:0:0:0:0:0:1 - - [25/Nov/2018:17:50:16 +0900] "GET /dbconn/login.jsp HTTP/1.1" 200 688
0:0:0:0:0:0:0:1 - - [25/Nov/2018:17:50:16 +0900] "GET /favicon.ico HTTP/1.1" 200 21630
0:0:0:0:0:0:0:1 - - [25/Nov/2018:17:50:59 +0900] "GET /dbconn/login.jsp HTTP/1.1" 200 658
0:0:0:0:0:0:0:1 - - [25/Nov/2018:17:50:59 +0900] "GET /favicon.ico HTTP/1.1" 200 21630
0:0:0:0:0:0:0:1 - - [25/Nov/2018:17:51:21 +0900] "GET /dbconn/login.jsp HTTP/1.1" 500 5352
0:0:0:0:0:0:0:1 - - [25/Nov/2018:17:51:21 +0900] "GET /favicon.ico HTTP/1.1" 200 21630
0:0:0:0:0:0:0:1 - - [25/Nov/2018:17:52:09 +0900] "GET /dbconn/Login.html HTTP/1.1" 200 -
0:0:0:0:0:0:0:1 - - [25/Nov/2018:17:52:10 +0900] "GET /favicon.ico HTTP/1.1" 200 21630
0:0:0:0:0:0:0:1 - - [25/Nov/2018:17:52:10 +0900] "GET /dbconn/Login.html HTTP/1.1" 304 -
0:0:0:0:0:0:0:1 - - [25/Nov/2018:17:52:10 +0900] "GET /favicon.ico HTTP/1.1" 200 21630
0:0:0:0:0:0:0:1 - - [25/Nov/2018:17:52:11 +0900] "GET /dbconn/Login.html HTTP/1.1" 304 -
0:0:0:0:0:0:0:1 - - [25/Nov/2018:17:52:11 +0900] "GET /favicon.ico HTTP/1.1" 200 21630
0:0:0:0:0:0:0:1 - - [25/Nov/2018:18:31:42 +0900] "GET /dbconn/Login.html HTTP/1.1" 304 -
0:0:0:0:0:0:0:1 - - [25/Nov/2018:18:31:43 +0900] "GET /favicon.ico HTTP/1.1" 200 21630
0:0:0:0:0:0:0:1 - - [25/Nov/2018:18:31:51 +0900] "GET /dbconn/login.jsp HTTP/1.1" 500 5334
0:0:0:0:0:0:0:1 - - [25/Nov/2018:18:32:01 +0900] "GET /dbconn/login.jsp HTTP/1.1" 500 5334
0:0:0:0:0:0:0:1 - - [25/Nov/2018:18:32:01 +0900] "GET /favicon.ico HTTP/1.1" 200 21630
0:0:0:0:0:0:0:1 - - [25/Nov/2018:18:32:05 +0900] "GET /dbconn/login.jsp HTTP/1.1" 500 5324
0:0:0:0:0:0:0:1 - - [25/Nov/2018:18:32:06 +0900] "GET /favicon.ico HTTP/1.1" 200 21630
0:0:0:0:0:0:0:1 - - [25/Nov/2018:18:32:57 +0900] "GET /dbconn/login.jsp HTTP/1.1" 500 2709
0:0:0:0:0:0:0:1 - - [25/Nov/2018:18:32:57 +0900] "GET /favicon.ico HTTP/1.1" 200 21630
0:0:0:0:0:0:0:1 - - [25/Nov/2018:18:33:09 +0900] "GET /dbconn/login.jsp HTTP/1.1" 200 637
0:0:0:0:0:0:0:1 - - [25/Nov/2018:18:33:09 +0900] "GET /favicon.ico HTTP/1.1" 200 21630
0:0:0:0:0:0:0:1 - - [25/Nov/2018:18:33:36 +0900] "GET /dbconn/login.jsp HTTP/1.1" 200 638
0:0:0:0:0:0:0:1 - - [25/Nov/2018:18:33:36 +0900] "GET /favicon.ico HTTP/1.1" 200 21630
0:0:0:0:0:0:0:1 - - [25/Nov/2018:18:33:37 +0900] "GET /dbconn/login.jsp HTTP/1.1" 200 638
0:0:0:0:0:0:0:1 - - [25/Nov/2018:18:33:37 +0900] "GET /favicon.ico HTTP/1.1" 200 21630
0:0:0:0:0:0:0:1 - - [25/Nov/2018:18:33:40 +0900] "GET /dbconn/login.jsp HTTP/1.1" 200 638
0:0:0:0:0:0:0:1 - - [25/Nov/2018:18:33:41 +0900] "GET /favicon.ico HTTP/1.1" 200 21630
0:0:0:0:0:0:0:1 - - [25/Nov/2018:18:33:59 +0900] "GET /dbconn/login.jsp HTTP/1.1" 200 620
0:0:0:0:0:0:0:1 - - [25/Nov/2018:18:33:59 +0900] "GET /favicon.ico HTTP/1.1" 200 21630
0:0:0:0:0:0:0:1 - - [25/Nov/2018:18:34:22 +0900] "GET /dbconn/login.jsp HTTP/1.1" 200 635
0:0:0:0:0:0:0:1 - - [25/Nov/2018:18:34:22 +0900] "GET /favicon.ico HTTP/1.1" 200 21630
0:0:0:0:0:0:0:1 - - [25/Nov/2018:18:34:23 +0900] "GET /dbconn/login.jsp HTTP/1.1" 200 635
0:0:0:0:0:0:0:1 - - [25/Nov/2018:18:34:23 +0900] "GET /favicon.ico HTTP/1.1" 200 21630
0:0:0:0:0:0:0:1 - - [25/Nov/2018:18:34:39 +0900] "GET /dbconn/login.jsp HTTP/1.1" 200 665
0:0:0:0:0:0:0:1 - - [25/Nov/2018:18:34:39 +0900] "GET /favicon.ico HTTP/1.1" 200 21630
0:0:0:0:0:0:0:1 - - [25/Nov/2018:18:34:50 +0900] "GET /dbconn/login.jsp HTTP/1.1" 200 680
0:0:0:0:0:0:0:1 - - [25/Nov/2018:18:34:50 +0900] "GET /favicon.ico HTTP/1.1" 200 21630
0:0:0:0:0:0:0:1 - - [25/Nov/2018:18:34:57 +0900] "GET /dbconn/login.jsp HTTP/1.1" 200 695
0:0:0:0:0:0:0:1 - - [25/Nov/2018:18:34:57 +0900] "GET /favicon.ico HTTP/1.1" 200 21630
0:0:0:0:0:0:0:1 - - [25/Nov/2018:18:34:57 +0900] "GET /dbconn/login.jsp HTTP/1.1" 200 695
0:0:0:0:0:0:0:1 - - [25/Nov/2018:18:34:58 +0900] "GET /favicon.ico HTTP/1.1" 200 21630
0:0:0:0:0:0:0:1 - - [25/Nov/2018:18:34:58 +0900] "GET /dbconn/login.jsp HTTP/1.1" 200 695
0:0:0:0:0:0:0:1 - - [25/Nov/2018:18:34:58 +0900] "GET /favicon.ico HTTP/1.1" 200 21630
0:0:0:0:0:0:0:1 - - [25/Nov/2018:18:34:58 +0900] "GET /dbconn/login.jsp HTTP/1.1" 200 695
0:0:0:0:0:0:0:1 - - [25/Nov/2018:18:34:58 +0900] "GET /favicon.ico HTTP/1.1" 200 21630
0:0:0:0:0:0:0:1 - - [25/Nov/2018:18:35:04 +0900] "GET /dbconn/login.jsp HTTP/1.1" 200 695
0:0:0:0:0:0:0:1 - - [25/Nov/2018:18:35:04 +0900] "GET /favicon.ico HTTP/1.1" 200 21630
0:0:0:0:0:0:0:1 - - [25/Nov/2018:18:35:16 +0900] "GET /dbconn/login.jsp HTTP/1.1" 200 702
0:0:0:0:0:0:0:1 - - [25/Nov/2018:18:35:16 +0900] "GET /favicon.ico HTTP/1.1" 200 21630
0:0:0:0:0:0:0:1 - - [25/Nov/2018:18:36:41 +0900] "GET /dbconn/login.jsp HTTP/1.1" 200 718
0:0:0:0:0:0:0:1 - - [25/Nov/2018:18:36:41 +0900] "GET /favicon.ico HTTP/1.1" 200 21630
0:0:0:0:0:0:0:1 - - [25/Nov/2018:18:37:02 +0900] "GET /dbconn/login.jsp HTTP/1.1" 200 674
0:0:0:0:0:0:0:1 - - [25/Nov/2018:18:37:02 +0900] "GET /favicon.ico HTTP/1.1" 200 21630
0:0:0:0:0:0:0:1 - - [25/Nov/2018:18:37:02 +0900] "GET /dbconn/login.jsp HTTP/1.1" 200 674
0:0:0:0:0:0:0:1 - - [25/Nov/2018:18:37:02 +0900] "GET /favicon.ico HTTP/1.1" 200 21630
0:0:0:0:0:0:0:1 - - [25/Nov/2018:18:37:02 +0900] "GET /dbconn/login.jsp HTTP/1.1" 200 674
0:0:0:0:0:0:0:1 - - [25/Nov/2018:18:37:02 +0900] "GET /favicon.ico HTTP/1.1" 200 21630
0:0:0:0:0:0:0:1 - - [25/Nov/2018:18:37:03 +0900] "GET /dbconn/login.jsp HTTP/1.1" 200 674
0:0:0:0:0:0:0:1 - - [25/Nov/2018:18:37:03 +0900] "GET /favicon.ico HTTP/1.1" 200 21630
0:0:0:0:0:0:0:1 - - [25/Nov/2018:18:37:40 +0900] "GET /dbconn/login.jsp HTTP/1.1" 200 661
0:0:0:0:0:0:0:1 - - [25/Nov/2018:18:37:40 +0900] "GET /favicon.ico HTTP/1.1" 200 21630
0:0:0:0:0:0:0:1 - - [25/Nov/2018:18:37:55 +0900] "GET /dbconn/login.jsp HTTP/1.1" 200 673
0:0:0:0:0:0:0:1 - - [25/Nov/2018:18:37:55 +0900] "GET /favicon.ico HTTP/1.1" 200 21630
0:0:0:0:0:0:0:1 - - [25/Nov/2018:18:37:55 +0900] "GET /dbconn/login.jsp HTTP/1.1" 200 673
0:0:0:0:0:0:0:1 - - [25/Nov/2018:18:37:55 +0900] "GET /favicon.ico HTTP/1.1" 200 21630
0:0:0:0:0:0:0:1 - - [25/Nov/2018:18:38:07 +0900] "GET /dbconn/login.jsp HTTP/1.1" 200 674
0:0:0:0:0:0:0:1 - - [25/Nov/2018:18:38:07 +0900] "GET /favicon.ico HTTP/1.1" 200 21630
0:0:0:0:0:0:0:1 - - [25/Nov/2018:18:39:29 +0900] "GET /dbconn/login.jsp HTTP/1.1" 200 739
0:0:0:0:0:0:0:1 - - [25/Nov/2018:18:39:29 +0900] "GET /favicon.ico HTTP/1.1" 200 21630
0:0:0:0:0:0:0:1 - - [25/Nov/2018:18:39:39 +0900] "GET /dbconn/login.jsp HTTP/1.1" 200 739
0:0:0:0:0:0:0:1 - - [25/Nov/2018:18:39:39 +0900] "GET /favicon.ico HTTP/1.1" 200 21630
0:0:0:0:0:0:0:1 - - [25/Nov/2018:18:39:53 +0900] "GET /dbconn/login.jsp HTTP/1.1" 200 739
0:0:0:0:0:0:0:1 - - [25/Nov/2018:18:39:53 +0900] "GET /favicon.ico HTTP/1.1" 200 21630
0:0:0:0:0:0:0:1 - - [25/Nov/2018:18:40:03 +0900] "GET /dbconn/login.jsp HTTP/1.1" 200 739
0:0:0:0:0:0:0:1 - - [25/Nov/2018:18:40:03 +0900] "GET /favicon.ico HTTP/1.1" 200 21630
0:0:0:0:0:0:0:1 - - [25/Nov/2018:18:40:03 +0900] "GET /dbconn/login.jsp HTTP/1.1" 200 739
0:0:0:0:0:0:0:1 - - [25/Nov/2018:18:40:04 +0900] "GET /favicon.ico HTTP/1.1" 200 21630
0:0:0:0:0:0:0:1 - - [25/Nov/2018:18:40:04 +0900] "GET /dbconn/login.jsp HTTP/1.1" 200 739
0:0:0:0:0:0:0:1 - - [25/Nov/2018:18:40:04 +0900] "GET /favicon.ico HTTP/1.1" 200 21630
0:0:0:0:0:0:0:1 - - [25/Nov/2018:18:40:04 +0900] "GET /dbconn/login.jsp HTTP/1.1" 200 739
0:0:0:0:0:0:0:1 - - [25/Nov/2018:18:40:04 +0900] "GET /favicon.ico HTTP/1.1" 200 21630
0:0:0:0:0:0:0:1 - - [25/Nov/2018:18:40:04 +0900] "GET /dbconn/login.jsp HTTP/1.1" 200 739
0:0:0:0:0:0:0:1 - - [25/Nov/2018:18:40:04 +0900] "GET /favicon.ico HTTP/1.1" 200 21630
0:0:0:0:0:0:0:1 - - [25/Nov/2018:18:40:04 +0900] "GET /dbconn/login.jsp HTTP/1.1" 200 739
0:0:0:0:0:0:0:1 - - [25/Nov/2018:18:40:04 +0900] "GET /favicon.ico HTTP/1.1" 200 21630
0:0:0:0:0:0:0:1 - - [25/Nov/2018:18:40:19 +0900] "GET /dbconn/login.jsp HTTP/1.1" 200 726
0:0:0:0:0:0:0:1 - - [25/Nov/2018:18:40:19 +0900] "GET /favicon.ico HTTP/1.1" 200 21630
0:0:0:0:0:0:0:1 - - [25/Nov/2018:18:40:19 +0900] "GET /dbconn/login.jsp HTTP/1.1" 200 726
0:0:0:0:0:0:0:1 - - [25/Nov/2018:18:40:19 +0900] "GET /favicon.ico HTTP/1.1" 200 21630
0:0:0:0:0:0:0:1 - - [25/Nov/2018:18:40:20 +0900] "GET /dbconn/login.jsp HTTP/1.1" 200 726
0:0:0:0:0:0:0:1 - - [25/Nov/2018:18:40:20 +0900] "GET /favicon.ico HTTP/1.1" 200 21630
0:0:0:0:0:0:0:1 - - [25/Nov/2018:18:40:26 +0900] "GET /dbconn/login.jsp HTTP/1.1" 200 726
0:0:0:0:0:0:0:1 - - [25/Nov/2018:18:40:27 +0900] "GET /favicon.ico HTTP/1.1" 200 21630
0:0:0:0:0:0:0:1 - - [25/Nov/2018:18:40:27 +0900] "GET /dbconn/login.jsp HTTP/1.1" 200 726
0:0:0:0:0:0:0:1 - - [25/Nov/2018:18:40:27 +0900] "GET /favicon.ico HTTP/1.1" 200 21630
0:0:0:0:0:0:0:1 - - [25/Nov/2018:18:40:27 +0900] "GET /dbconn/login.jsp HTTP/1.1" 200 726
0:0:0:0:0:0:0:1 - - [25/Nov/2018:18:40:27 +0900] "GET /favicon.ico HTTP/1.1" 200 21630
0:0:0:0:0:0:0:1 - - [25/Nov/2018:18:40:27 +0900] "GET /dbconn/login.jsp HTTP/1.1" 200 726
0:0:0:0:0:0:0:1 - - [25/Nov/2018:18:40:27 +0900] "GET /favicon.ico HTTP/1.1" 200 21630
0:0:0:0:0:0:0:1 - - [25/Nov/2018:18:40:36 +0900] "GET /dbconn/login.jsp HTTP/1.1" 200 726
0:0:0:0:0:0:0:1 - - [25/Nov/2018:18:40:36 +0900] "GET /favicon.ico HTTP/1.1" 200 21630
0:0:0:0:0:0:0:1 - - [25/Nov/2018:18:40:37 +0900] "GET /dbconn/login.jsp HTTP/1.1" 200 726
0:0:0:0:0:0:0:1 - - [25/Nov/2018:18:40:37 +0900] "GET /favicon.ico HTTP/1.1" 200 21630
0:0:0:0:0:0:0:1 - - [25/Nov/2018:18:40:37 +0900] "GET /dbconn/login.jsp HTTP/1.1" 200 726
0:0:0:0:0:0:0:1 - - [25/Nov/2018:18:40:37 +0900] "GET /favicon.ico HTTP/1.1" 200 21630
0:0:0:0:0:0:0:1 - - [25/Nov/2018:18:40:37 +0900] "GET /dbconn/login.jsp HTTP/1.1" 200 726
0:0:0:0:0:0:0:1 - - [25/Nov/2018:18:40:37 +0900] "GET /favicon.ico HTTP/1.1" 200 21630
0:0:0:0:0:0:0:1 - - [25/Nov/2018:18:40:37 +0900] "GET /dbconn/login.jsp HTTP/1.1" 200 726
0:0:0:0:0:0:0:1 - - [25/Nov/2018:18:40:37 +0900] "GET /favicon.ico HTTP/1.1" 200 21630
0:0:0:0:0:0:0:1 - - [25/Nov/2018:18:40:37 +0900] "GET /dbconn/login.jsp HTTP/1.1" 200 726
0:0:0:0:0:0:0:1 - - [25/Nov/2018:18:40:37 +0900] "GET /favicon.ico HTTP/1.1" 200 21630
0:0:0:0:0:0:0:1 - - [25/Nov/2018:18:40:37 +0900] "GET /dbconn/login.jsp HTTP/1.1" 200 726
0:0:0:0:0:0:0:1 - - [25/Nov/2018:18:40:38 +0900] "GET /favicon.ico HTTP/1.1" 200 21630
0:0:0:0:0:0:0:1 - - [25/Nov/2018:18:40:49 +0900] "GET /dbconn/login.jsp HTTP/1.1" 200 738
0:0:0:0:0:0:0:1 - - [25/Nov/2018:18:40:49 +0900] "GET /favicon.ico HTTP/1.1" 200 21630
0:0:0:0:0:0:0:1 - - [25/Nov/2018:18:40:49 +0900] "GET /dbconn/login.jsp HTTP/1.1" 200 738
0:0:0:0:0:0:0:1 - - [25/Nov/2018:18:40:49 +0900] "GET /favicon.ico HTTP/1.1" 200 21630
0:0:0:0:0:0:0:1 - - [25/Nov/2018:18:40:50 +0900] "GET /dbconn/login.jsp HTTP/1.1" 200 738
0:0:0:0:0:0:0:1 - - [25/Nov/2018:18:40:50 +0900] "GET /favicon.ico HTTP/1.1" 200 21630
0:0:0:0:0:0:0:1 - - [25/Nov/2018:18:41:00 +0900] "GET /dbconn/login.jsp HTTP/1.1" 200 738
0:0:0:0:0:0:0:1 - - [25/Nov/2018:18:41:00 +0900] "GET /favicon.ico HTTP/1.1" 200 21630
0:0:0:0:0:0:0:1 - - [25/Nov/2018:18:41:00 +0900] "GET /dbconn/login.jsp HTTP/1.1" 200 738
0:0:0:0:0:0:0:1 - - [25/Nov/2018:18:41:00 +0900] "GET /favicon.ico HTTP/1.1" 200 21630
0:0:0:0:0:0:0:1 - - [25/Nov/2018:18:41:00 +0900] "GET /dbconn/login.jsp HTTP/1.1" 200 738
0:0:0:0:0:0:0:1 - - [25/Nov/2018:18:41:00 +0900] "GET /favicon.ico HTTP/1.1" 200 21630
0:0:0:0:0:0:0:1 - - [25/Nov/2018:18:41:01 +0900] "GET /dbconn/login.jsp HTTP/1.1" 200 738
0:0:0:0:0:0:0:1 - - [25/Nov/2018:18:41:01 +0900] "GET /favicon.ico HTTP/1.1" 200 21630
0:0:0:0:0:0:0:1 - - [25/Nov/2018:18:41:01 +0900] "GET /dbconn/login.jsp HTTP/1.1" 200 738
0:0:0:0:0:0:0:1 - - [25/Nov/2018:18:41:01 +0900] "GET /favicon.ico HTTP/1.1" 200 21630
0:0:0:0:0:0:0:1 - - [25/Nov/2018:18:41:11 +0900] "GET /dbconn/login.jsp HTTP/1.1" 200 738
0:0:0:0:0:0:0:1 - - [25/Nov/2018:18:41:11 +0900] "GET /favicon.ico HTTP/1.1" 200 21630
0:0:0:0:0:0:0:1 - - [25/Nov/2018:18:41:11 +0900] "GET /dbconn/login.jsp HTTP/1.1" 200 738
0:0:0:0:0:0:0:1 - - [25/Nov/2018:18:41:11 +0900] "GET /favicon.ico HTTP/1.1" 200 21630
0:0:0:0:0:0:0:1 - - [25/Nov/2018:18:41:11 +0900] "GET /dbconn/login.jsp HTTP/1.1" 200 738
0:0:0:0:0:0:0:1 - - [25/Nov/2018:18:41:12 +0900] "GET /favicon.ico HTTP/1.1" 200 21630
0:0:0:0:0:0:0:1 - - [25/Nov/2018:18:41:12 +0900] "GET /dbconn/login.jsp HTTP/1.1" 200 738
0:0:0:0:0:0:0:1 - - [25/Nov/2018:18:41:12 +0900] "GET /favicon.ico HTTP/1.1" 200 21630
0:0:0:0:0:0:0:1 - - [25/Nov/2018:18:41:24 +0900] "GET /dbconn/login.jsp HTTP/1.1" 200 738
0:0:0:0:0:0:0:1 - - [25/Nov/2018:18:41:24 +0900] "GET /favicon.ico HTTP/1.1" 200 21630
0:0:0:0:0:0:0:1 - - [25/Nov/2018:18:41:46 +0900] "GET /dbconn/login.jsp HTTP/1.1" 200 733
0:0:0:0:0:0:0:1 - - [25/Nov/2018:18:41:46 +0900] "GET /favicon.ico HTTP/1.1" 200 21630
0:0:0:0:0:0:0:1 - - [25/Nov/2018:18:41:54 +0900] "GET /dbconn/login.jsp HTTP/1.1" 200 733
0:0:0:0:0:0:0:1 - - [25/Nov/2018:18:41:54 +0900] "GET /favicon.ico HTTP/1.1" 200 21630
0:0:0:0:0:0:0:1 - - [25/Nov/2018:18:42:03 +0900] "GET /dbconn/login.jsp HTTP/1.1" 200 733
0:0:0:0:0:0:0:1 - - [25/Nov/2018:18:42:03 +0900] "GET /favicon.ico HTTP/1.1" 200 21630
0:0:0:0:0:0:0:1 - - [25/Nov/2018:18:42:04 +0900] "GET /dbconn/login.jsp HTTP/1.1" 200 733
0:0:0:0:0:0:0:1 - - [25/Nov/2018:18:42:04 +0900] "GET /favicon.ico HTTP/1.1" 200 21630
0:0:0:0:0:0:0:1 - - [25/Nov/2018:18:42:04 +0900] "GET /dbconn/login.jsp HTTP/1.1" 200 733
0:0:0:0:0:0:0:1 - - [25/Nov/2018:18:42:04 +0900] "GET /favicon.ico HTTP/1.1" 200 21630
0:0:0:0:0:0:0:1 - - [25/Nov/2018:18:42:07 +0900] "GET /dbconn/login.jsp HTTP/1.1" 200 733
0:0:0:0:0:0:0:1 - - [25/Nov/2018:18:42:08 +0900] "GET /favicon.ico HTTP/1.1" 200 21630
0:0:0:0:0:0:0:1 - - [25/Nov/2018:18:42:08 +0900] "GET /dbconn/login.jsp HTTP/1.1" 200 733
0:0:0:0:0:0:0:1 - - [25/Nov/2018:18:42:08 +0900] "GET /favicon.ico HTTP/1.1" 200 21630
0:0:0:0:0:0:0:1 - - [25/Nov/2018:18:42:08 +0900] "GET /dbconn/login.jsp HTTP/1.1" 200 733
0:0:0:0:0:0:0:1 - - [25/Nov/2018:18:42:08 +0900] "GET /favicon.ico HTTP/1.1" 200 21630
0:0:0:0:0:0:0:1 - - [25/Nov/2018:18:42:08 +0900] "GET /dbconn/login.jsp HTTP/1.1" 200 733
0:0:0:0:0:0:0:1 - - [25/Nov/2018:18:42:08 +0900] "GET /favicon.ico HTTP/1.1" 200 21630
0:0:0:0:0:0:0:1 - - [25/Nov/2018:18:42:27 +0900] "GET /dbconn/login.jsp HTTP/1.1" 200 745
0:0:0:0:0:0:0:1 - - [25/Nov/2018:18:42:27 +0900] "GET /favicon.ico HTTP/1.1" 200 21630
0:0:0:0:0:0:0:1 - - [25/Nov/2018:18:42:27 +0900] "GET /dbconn/login.jsp HTTP/1.1" 200 745
0:0:0:0:0:0:0:1 - - [25/Nov/2018:18:42:28 +0900] "GET /favicon.ico HTTP/1.1" 200 21630
0:0:0:0:0:0:0:1 - - [25/Nov/2018:18:42:28 +0900] "GET /dbconn/login.jsp HTTP/1.1" 200 745
0:0:0:0:0:0:0:1 - - [25/Nov/2018:18:42:28 +0900] "GET /favicon.ico HTTP/1.1" 200 21630
0:0:0:0:0:0:0:1 - - [25/Nov/2018:18:42:28 +0900] "GET /dbconn/login.jsp HTTP/1.1" 200 745
0:0:0:0:0:0:0:1 - - [25/Nov/2018:18:42:28 +0900] "GET /favicon.ico HTTP/1.1" 200 21630
0:0:0:0:0:0:0:1 - - [25/Nov/2018:18:42:39 +0900] "GET /dbconn/login.jsp HTTP/1.1" 200 757
0:0:0:0:0:0:0:1 - - [25/Nov/2018:18:42:39 +0900] "GET /favicon.ico HTTP/1.1" 200 21630
0:0:0:0:0:0:0:1 - - [25/Nov/2018:18:42:40 +0900] "GET /dbconn/login.jsp HTTP/1.1" 200 757
0:0:0:0:0:0:0:1 - - [25/Nov/2018:18:42:40 +0900] "GET /favicon.ico HTTP/1.1" 200 21630
0:0:0:0:0:0:0:1 - - [25/Nov/2018:18:42:40 +0900] "GET /dbconn/login.jsp HTTP/1.1" 200 757
0:0:0:0:0:0:0:1 - - [25/Nov/2018:18:42:40 +0900] "GET /favicon.ico HTTP/1.1" 200 21630
0:0:0:0:0:0:0:1 - - [25/Nov/2018:18:42:48 +0900] "GET /dbconn/login.jsp HTTP/1.1" 200 733
0:0:0:0:0:0:0:1 - - [25/Nov/2018:18:42:48 +0900] "GET /favicon.ico HTTP/1.1" 200 21630
0:0:0:0:0:0:0:1 - - [25/Nov/2018:18:42:58 +0900] "GET /dbconn/login.jsp HTTP/1.1" 200 731
0:0:0:0:0:0:0:1 - - [25/Nov/2018:18:42:58 +0900] "GET /favicon.ico HTTP/1.1" 200 21630
0:0:0:0:0:0:0:1 - - [25/Nov/2018:18:42:58 +0900] "GET /dbconn/login.jsp HTTP/1.1" 200 731
0:0:0:0:0:0:0:1 - - [25/Nov/2018:18:42:59 +0900] "GET /favicon.ico HTTP/1.1" 200 21630
0:0:0:0:0:0:0:1 - - [25/Nov/2018:18:42:59 +0900] "GET /dbconn/login.jsp HTTP/1.1" 200 731
0:0:0:0:0:0:0:1 - - [25/Nov/2018:18:42:59 +0900] "GET /favicon.ico HTTP/1.1" 200 21630
0:0:0:0:0:0:0:1 - - [25/Nov/2018:18:42:59 +0900] "GET /dbconn/login.jsp HTTP/1.1" 200 731
0:0:0:0:0:0:0:1 - - [25/Nov/2018:18:42:59 +0900] "GET /favicon.ico HTTP/1.1" 200 21630
0:0:0:0:0:0:0:1 - - [25/Nov/2018:18:43:08 +0900] "GET /dbconn/login.jsp HTTP/1.1" 200 733
0:0:0:0:0:0:0:1 - - [25/Nov/2018:18:43:08 +0900] "GET /favicon.ico HTTP/1.1" 200 21630
0:0:0:0:0:0:0:1 - - [25/Nov/2018:18:56:32 +0900] "POST /dbconn/compare.jsp HTTP/1.1" 500 3583
0:0:0:0:0:0:0:1 - - [25/Nov/2018:19:00:12 +0900] "POST /dbconn/compare.jsp HTTP/1.1" 500 3362
0:0:0:0:0:0:0:1 - - [25/Nov/2018:19:09:28 +0900] "POST /dbconn/compare.jsp HTTP/1.1" 500 2456
0:0:0:0:0:0:0:1 - - [25/Nov/2018:19:10:02 +0900] "POST /dbconn/compare.jsp HTTP/1.1" 500 3002
0:0:0:0:0:0:0:1 - - [25/Nov/2018:19:10:02 +0900] "GET /favicon.ico HTTP/1.1" 200 21630
0:0:0:0:0:0:0:1 - - [25/Nov/2018:19:10:06 +0900] "POST /dbconn/compare.jsp HTTP/1.1" 500 3002
0:0:0:0:0:0:0:1 - - [25/Nov/2018:19:10:06 +0900] "GET /favicon.ico HTTP/1.1" 200 21630
0:0:0:0:0:0:0:1 - - [25/Nov/2018:19:10:29 +0900] "POST /dbconn/compare.jsp HTTP/1.1" 500 2385
0:0:0:0:0:0:0:1 - - [25/Nov/2018:19:10:29 +0900] "GET /favicon.ico HTTP/1.1" 200 21630
0:0:0:0:0:0:0:1 - - [25/Nov/2018:19:11:27 +0900] "POST /dbconn/compare.jsp HTTP/1.1" 500 5342
0:0:0:0:0:0:0:1 - - [25/Nov/2018:19:11:27 +0900] "GET /favicon.ico HTTP/1.1" 200 21630
0:0:0:0:0:0:0:1 - - [25/Nov/2018:19:12:33 +0900] "POST /dbconn/compare.jsp HTTP/1.1" 500 5316
0:0:0:0:0:0:0:1 - - [25/Nov/2018:19:12:33 +0900] "GET /favicon.ico HTTP/1.1" 200 21630
0:0:0:0:0:0:0:1 - - [25/Nov/2018:19:13:09 +0900] "POST /dbconn/compare.jsp HTTP/1.1" 200 158
0:0:0:0:0:0:0:1 - - [25/Nov/2018:19:13:09 +0900] "GET /favicon.ico HTTP/1.1" 200 21630
0:0:0:0:0:0:0:1 - - [25/Nov/2018:19:14:10 +0900] "POST /dbconn/compare.jsp HTTP/1.1" 200 172
0:0:0:0:0:0:0:1 - - [25/Nov/2018:19:14:10 +0900] "GET /favicon.ico HTTP/1.1" 200 21630
0:0:0:0:0:0:0:1 - - [25/Nov/2018:19:14:24 +0900] "POST /dbconn/compare.jsp HTTP/1.1" 200 176
0:0:0:0:0:0:0:1 - - [25/Nov/2018:19:14:24 +0900] "GET /favicon.ico HTTP/1.1" 200 21630
0:0:0:0:0:0:0:1 - - [25/Nov/2018:19:15:24 +0900] "POST /dbconn/compare.jsp HTTP/1.1" 500 2684
0:0:0:0:0:0:0:1 - - [25/Nov/2018:19:15:24 +0900] "GET /favicon.ico HTTP/1.1" 200 21630
0:0:0:0:0:0:0:1 - - [25/Nov/2018:19:16:31 +0900] "POST /dbconn/compare.jsp HTTP/1.1" 500 2611
0:0:0:0:0:0:0:1 - - [25/Nov/2018:19:16:31 +0900] "GET /favicon.ico HTTP/1.1" 200 21630
0:0:0:0:0:0:0:1 - - [25/Nov/2018:19:17:45 +0900] "POST /dbconn/compare.jsp HTTP/1.1" 200 176
0:0:0:0:0:0:0:1 - - [25/Nov/2018:19:17:45 +0900] "GET /favicon.ico HTTP/1.1" 200 21630
0:0:0:0:0:0:0:1 - - [25/Nov/2018:19:18:10 +0900] "POST /dbconn/compare.jsp HTTP/1.1" 200 177
0:0:0:0:0:0:0:1 - - [25/Nov/2018:19:18:10 +0900] "GET /favicon.ico HTTP/1.1" 200 21630
0:0:0:0:0:0:0:1 - - [25/Nov/2018:19:18:58 +0900] "POST /dbconn/compare.jsp HTTP/1.1" 200 178
0:0:0:0:0:0:0:1 - - [25/Nov/2018:19:18:58 +0900] "GET /favicon.ico HTTP/1.1" 200 21630
0:0:0:0:0:0:0:1 - - [25/Nov/2018:19:19:22 +0900] "POST /dbconn/compare.jsp HTTP/1.1" 500 2630
0:0:0:0:0:0:0:1 - - [25/Nov/2018:19:19:22 +0900] "GET /favicon.ico HTTP/1.1" 200 21630
0:0:0:0:0:0:0:1 - - [25/Nov/2018:19:20:29 +0900] "POST /dbconn/compare.jsp HTTP/1.1" 500 5316
0:0:0:0:0:0:0:1 - - [25/Nov/2018:19:20:29 +0900] "GET /favicon.ico HTTP/1.1" 200 21630
0:0:0:0:0:0:0:1 - - [25/Nov/2018:19:20:44 +0900] "POST /dbconn/compare.jsp HTTP/1.1" 200 159
0:0:0:0:0:0:0:1 - - [25/Nov/2018:19:20:44 +0900] "GET /favicon.ico HTTP/1.1" 200 21630
0:0:0:0:0:0:0:1 - - [25/Nov/2018:19:20:51 +0900] "POST /dbconn/compare.jsp HTTP/1.1" 200 116
0:0:0:0:0:0:0:1 - - [25/Nov/2018:19:20:56 +0900] "POST /dbconn/compare.jsp HTTP/1.1" 200 116
0:0:0:0:0:0:0:1 - - [25/Nov/2018:19:21:16 +0900] "POST /dbconn/compare.jsp HTTP/1.1" 200 116
0:0:0:0:0:0:0:1 - - [25/Nov/2018:19:21:18 +0900] "GET /dbconn/login.jsp HTTP/1.1" 200 733
0:0:0:0:0:0:0:1 - - [25/Nov/2018:19:21:18 +0900] "GET /favicon.ico HTTP/1.1" 200 21630
0:0:0:0:0:0:0:1 - - [25/Nov/2018:19:21:20 +0900] "POST /dbconn/compare.jsp HTTP/1.1" 200 116
0:0:0:0:0:0:0:1 - - [25/Nov/2018:19:21:25 +0900] "POST /dbconn/compare.jsp HTTP/1.1" 200 116
0:0:0:0:0:0:0:1 - - [25/Nov/2018:19:21:25 +0900] "GET /favicon.ico HTTP/1.1" 200 21630
0:0:0:0:0:0:0:1 - - [25/Nov/2018:19:21:44 +0900] "POST /dbconn/compare.jsp HTTP/1.1" 200 121
0:0:0:0:0:0:0:1 - - [25/Nov/2018:19:21:46 +0900] "GET /dbconn/login.jsp HTTP/1.1" 200 733
0:0:0:0:0:0:0:1 - - [25/Nov/2018:19:21:46 +0900] "GET /favicon.ico HTTP/1.1" 200 21630
0:0:0:0:0:0:0:1 - - [25/Nov/2018:19:21:51 +0900] "POST /dbconn/compare.jsp HTTP/1.1" 200 175
0:0:0:0:0:0:0:1 - - [25/Nov/2018:19:22:02 +0900] "POST /dbconn/compare.jsp HTTP/1.1" 200 175
0:0:0:0:0:0:0:1 - - [25/Nov/2018:19:22:05 +0900] "POST /dbconn/compare.jsp HTTP/1.1" 200 175
0:0:0:0:0:0:0:1 - - [25/Nov/2018:19:22:05 +0900] "GET /favicon.ico HTTP/1.1" 200 21630
0:0:0:0:0:0:0:1 - - [25/Nov/2018:19:22:08 +0900] "GET /dbconn/login.jsp HTTP/1.1" 200 733
0:0:0:0:0:0:0:1 - - [25/Nov/2018:19:22:08 +0900] "GET /favicon.ico HTTP/1.1" 200 21630
0:0:0:0:0:0:0:1 - - [25/Nov/2018:19:22:10 +0900] "POST /dbconn/compare.jsp HTTP/1.1" 200 164
0:0:0:0:0:0:0:1 - - [25/Nov/2018:19:22:34 +0900] "POST /dbconn/compare.jsp HTTP/1.1" 200 179
0:0:0:0:0:0:0:1 - - [25/Nov/2018:19:27:40 +0900] "POST /dbconn/compare.jsp HTTP/1.1" 500 2536
0:0:0:0:0:0:0:1 - - [25/Nov/2018:19:27:40 +0900] "GET /favicon.ico HTTP/1.1" 200 21630
0:0:0:0:0:0:0:1 - - [25/Nov/2018:19:28:05 +0900] "POST /dbconn/compare.jsp HTTP/1.1" 500 2540
0:0:0:0:0:0:0:1 - - [25/Nov/2018:19:28:05 +0900] "GET /favicon.ico HTTP/1.1" 200 21630
0:0:0:0:0:0:0:1 - - [25/Nov/2018:19:28:19 +0900] "POST /dbconn/compare.jsp HTTP/1.1" 500 2541
0:0:0:0:0:0:0:1 - - [25/Nov/2018:19:28:20 +0900] "GET /favicon.ico HTTP/1.1" 200 21630
0:0:0:0:0:0:0:1 - - [25/Nov/2018:19:28:57 +0900] "POST /dbconn/compare.jsp HTTP/1.1" 302 -
0:0:0:0:0:0:0:1 - - [25/Nov/2018:19:28:57 +0900] "GET /dbconn/login.jsp?error=login-failed.. HTTP/1.1" 200 717
0:0:0:0:0:0:0:1 - - [25/Nov/2018:19:29:08 +0900] "POST /dbconn/compare.jsp HTTP/1.1" 302 -
0:0:0:0:0:0:0:1 - - [25/Nov/2018:19:29:08 +0900] "GET /dbconn/login.jsp?error=login-failed.. HTTP/1.1" 200 717
0:0:0:0:0:0:0:1 - - [25/Nov/2018:19:29:11 +0900] "POST /dbconn/compare.jsp HTTP/1.1" 302 -
0:0:0:0:0:0:0:1 - - [25/Nov/2018:19:29:11 +0900] "GET /dbconn/login.jsp?error=login-failed.. HTTP/1.1" 200 717
0:0:0:0:0:0:0:1 - - [25/Nov/2018:19:29:18 +0900] "POST /dbconn/compare.jsp HTTP/1.1" 302 -
0:0:0:0:0:0:0:1 - - [25/Nov/2018:19:29:18 +0900] "GET /dbconn/login.jsp?error=login-failed.. HTTP/1.1" 200 717
0:0:0:0:0:0:0:1 - - [25/Nov/2018:19:29:20 +0900] "GET /dbconn/login.jsp?error=login-failed.. HTTP/1.1" 200 717
0:0:0:0:0:0:0:1 - - [25/Nov/2018:19:29:20 +0900] "GET /favicon.ico HTTP/1.1" 200 21630
0:0:0:0:0:0:0:1 - - [25/Nov/2018:19:29:24 +0900] "GET /dbconn/login.jsp?error=login-failed.. HTTP/1.1" 200 717
0:0:0:0:0:0:0:1 - - [25/Nov/2018:19:29:24 +0900] "GET /favicon.ico HTTP/1.1" 200 21630
0:0:0:0:0:0:0:1 - - [25/Nov/2018:19:29:28 +0900] "GET /dbconn/login.jsp HTTP/1.1" 200 733
0:0:0:0:0:0:0:1 - - [25/Nov/2018:19:29:33 +0900] "POST /dbconn/compare.jsp HTTP/1.1" 302 -
0:0:0:0:0:0:0:1 - - [25/Nov/2018:19:29:33 +0900] "GET /dbconn/login.jsp?error=login-failed.. HTTP/1.1" 200 717
0:0:0:0:0:0:0:1 - - [25/Nov/2018:19:31:31 +0900] "GET /dbconn/login.jsp?error=login-failed.. HTTP/1.1" 200 717
0:0:0:0:0:0:0:1 - - [25/Nov/2018:19:31:31 +0900] "GET /favicon.ico HTTP/1.1" 200 21630
0:0:0:0:0:0:0:1 - - [25/Nov/2018:19:31:35 +0900] "GET /dbconn/login.jsp HTTP/1.1" 200 733
0:0:0:0:0:0:0:1 - - [25/Nov/2018:19:31:38 +0900] "POST /dbconn/compare.jsp HTTP/1.1" 302 -
0:0:0:0:0:0:0:1 - - [25/Nov/2018:19:31:38 +0900] "GET /dbconn/login.jsp?error=login-failed.. HTTP/1.1" 200 717
0:0:0:0:0:0:0:1 - - [25/Nov/2018:19:32:04 +0900] "GET /dbconn/login.jsp HTTP/1.1" 200 733
0:0:0:0:0:0:0:1 - - [25/Nov/2018:19:32:05 +0900] "POST /dbconn/compare.jsp HTTP/1.1" 302 -
0:0:0:0:0:0:0:1 - - [25/Nov/2018:19:32:05 +0900] "GET /dbconn/login.jsp?error=login-failed.. HTTP/1.1" 200 717
0:0:0:0:0:0:0:1 - - [25/Nov/2018:19:34:30 +0900] "GET /dbconn/login.jsp HTTP/1.1" 200 733
0:0:0:0:0:0:0:1 - - [25/Nov/2018:19:34:32 +0900] "POST /dbconn/compare.jsp HTTP/1.1" 200 116
0:0:0:0:0:0:0:1 - - [25/Nov/2018:19:35:46 +0900] "POST /dbconn/compare.jsp HTTP/1.1" 500 2565
0:0:0:0:0:0:0:1 - - [25/Nov/2018:19:35:47 +0900] "GET /favicon.ico HTTP/1.1" 200 21630
0:0:0:0:0:0:0:1 - - [25/Nov/2018:19:36:05 +0900] "POST /dbconn/compare.jsp HTTP/1.1" 500 2904
0:0:0:0:0:0:0:1 - - [25/Nov/2018:19:36:05 +0900] "GET /favicon.ico HTTP/1.1" 200 21630
0:0:0:0:0:0:0:1 - - [25/Nov/2018:19:36:22 +0900] "POST /dbconn/compare.jsp HTTP/1.1" 302 -
0:0:0:0:0:0:0:1 - - [25/Nov/2018:19:36:22 +0900] "GET /dbconn/login.jsp?error=login-failed.. HTTP/1.1" 200 717
0:0:0:0:0:0:0:1 - - [25/Nov/2018:19:36:25 +0900] "POST /dbconn/compare.jsp HTTP/1.1" 302 -
0:0:0:0:0:0:0:1 - - [25/Nov/2018:19:36:25 +0900] "GET /dbconn/login.jsp?error=login-failed.. HTTP/1.1" 200 717
0:0:0:0:0:0:0:1 - - [25/Nov/2018:19:37:24 +0900] "POST /dbconn/compare.jsp HTTP/1.1" 500 2727
0:0:0:0:0:0:0:1 - - [25/Nov/2018:19:43:52 +0900] "GET /dbconn/login.jsp?error=login-failed.. HTTP/1.1" 200 717
0:0:0:0:0:0:0:1 - - [25/Nov/2018:19:43:52 +0900] "GET /favicon.ico HTTP/1.1" 200 21630
0:0:0:0:0:0:0:1 - - [25/Nov/2018:19:43:57 +0900] "GET /dbconn/login.jsp?error=login-failed.. HTTP/1.1" 200 717
0:0:0:0:0:0:0:1 - - [25/Nov/2018:19:43:57 +0900] "GET /favicon.ico HTTP/1.1" 200 21630
0:0:0:0:0:0:0:1 - - [25/Nov/2018:19:43:59 +0900] "GET /dbconn/login.jsp HTTP/1.1" 200 733
0:0:0:0:0:0:0:1 - - [25/Nov/2018:19:44:06 +0900] "POST /dbconn/compare.jsp HTTP/1.1" 500 2588
0:0:0:0:0:0:0:1 - - [25/Nov/2018:19:44:24 +0900] "POST /dbconn/compare.jsp HTTP/1.1" 500 2587
0:0:0:0:0:0:0:1 - - [25/Nov/2018:19:44:24 +0900] "GET /favicon.ico HTTP/1.1" 200 21630
0:0:0:0:0:0:0:1 - - [25/Nov/2018:19:44:39 +0900] "POST /dbconn/compare.jsp HTTP/1.1" 200 201
0:0:0:0:0:0:0:1 - - [25/Nov/2018:19:44:41 +0900] "GET /dbconn/list.jsp HTTP/1.1" 200 1445
0:0:0:0:0:0:0:1 - - [25/Nov/2018:19:44:49 +0900] "POST /dbconn/compare.jsp HTTP/1.1" 200 116
0:0:0:0:0:0:0:1 - - [25/Nov/2018:19:44:54 +0900] "POST /dbconn/compare.jsp HTTP/1.1" 200 116
0:0:0:0:0:0:0:1 - - [25/Nov/2018:19:44:58 +0900] "POST /dbconn/compare.jsp HTTP/1.1" 200 116
0:0:0:0:0:0:0:1 - - [25/Nov/2018:19:45:02 +0900] "POST /dbconn/compare.jsp HTTP/1.1" 200 197
0:0:0:0:0:0:0:1 - - [25/Nov/2018:19:45:10 +0900] "POST /dbconn/compare.jsp HTTP/1.1" 200 201
0:0:0:0:0:0:0:1 - - [25/Nov/2018:19:45:12 +0900] "GET /dbconn/list.jsp HTTP/1.1" 200 1445
0:0:0:0:0:0:0:1 - - [25/Nov/2018:19:47:42 +0900] "GET /dbconn/login.jsp HTTP/1.1" 200 733
0:0:0:0:0:0:0:1 - - [25/Nov/2018:19:47:42 +0900] "GET /favicon.ico HTTP/1.1" 200 21630
0:0:0:0:0:0:0:1 - - [25/Nov/2018:19:47:46 +0900] "POST /dbconn/compare.jsp HTTP/1.1" 500 3578
0:0:0:0:0:0:0:1 - - [25/Nov/2018:19:48:15 +0900] "POST /dbconn/compare.jsp HTTP/1.1" 500 3582
0:0:0:0:0:0:0:1 - - [25/Nov/2018:19:48:15 +0900] "GET /favicon.ico HTTP/1.1" 200 21630
0:0:0:0:0:0:0:1 - - [25/Nov/2018:19:49:57 +0900] "GET /dbconn/login.jsp HTTP/1.1" 200 719
0:0:0:0:0:0:0:1 - - [25/Nov/2018:19:49:57 +0900] "GET /favicon.ico HTTP/1.1" 200 21630
0:0:0:0:0:0:0:1 - - [25/Nov/2018:19:49:58 +0900] "GET /dbconn/login.jsp HTTP/1.1" 200 719
0:0:0:0:0:0:0:1 - - [25/Nov/2018:19:49:58 +0900] "GET /favicon.ico HTTP/1.1" 200 21630
0:0:0:0:0:0:0:1 - - [25/Nov/2018:19:50:03 +0900] "POST /dbconn/compare.jsp HTTP/1.1" 500 3582
0:0:0:0:0:0:0:1 - - [25/Nov/2018:19:50:10 +0900] "POST /dbconn/compare.jsp HTTP/1.1" 500 3582
0:0:0:0:0:0:0:1 - - [25/Nov/2018:19:51:30 +0900] "POST /dbconn/compare.jsp HTTP/1.1" 500 3570
0:0:0:0:0:0:0:1 - - [25/Nov/2018:19:51:31 +0900] "GET /favicon.ico HTTP/1.1" 200 21630
0:0:0:0:0:0:0:1 - - [25/Nov/2018:19:52:24 +0900] "POST /dbconn/compare.jsp HTTP/1.1" 500 3584
0:0:0:0:0:0:0:1 - - [25/Nov/2018:19:52:25 +0900] "GET /favicon.ico HTTP/1.1" 200 21630
0:0:0:0:0:0:0:1 - - [25/Nov/2018:19:52:30 +0900] "POST /dbconn/compare.jsp HTTP/1.1" 500 3584
0:0:0:0:0:0:0:1 - - [25/Nov/2018:19:52:30 +0900] "GET /favicon.ico HTTP/1.1" 200 21630
0:0:0:0:0:0:0:1 - - [25/Nov/2018:19:53:21 +0900] "POST /dbconn/compare.jsp HTTP/1.1" 200 116
0:0:0:0:0:0:0:1 - - [25/Nov/2018:19:53:21 +0900] "GET /favicon.ico HTTP/1.1" 200 21630
0:0:0:0:0:0:0:1 - - [25/Nov/2018:19:53:30 +0900] "POST /dbconn/compare.jsp HTTP/1.1" 200 116
0:0:0:0:0:0:0:1 - - [25/Nov/2018:19:53:42 +0900] "GET /dbconn/login.jsp HTTP/1.1" 200 719
0:0:0:0:0:0:0:1 - - [25/Nov/2018:19:53:42 +0900] "GET /favicon.ico HTTP/1.1" 200 21630
0:0:0:0:0:0:0:1 - - [25/Nov/2018:19:53:47 +0900] "POST /dbconn/compare.jsp HTTP/1.1" 500 2518
0:0:0:0:0:0:0:1 - - [25/Nov/2018:19:54:14 +0900] "POST /dbconn/compare.jsp HTTP/1.1" 200 116
0:0:0:0:0:0:0:1 - - [25/Nov/2018:19:54:14 +0900] "GET /favicon.ico HTTP/1.1" 200 21630
0:0:0:0:0:0:0:1 - - [25/Nov/2018:19:54:22 +0900] "POST /dbconn/compare.jsp HTTP/1.1" 200 116
0:0:0:0:0:0:0:1 - - [25/Nov/2018:20:01:30 +0900] "POST /dbconn/compare.jsp HTTP/1.1" 200 116
0:0:0:0:0:0:0:1 - - [25/Nov/2018:20:01:36 +0900] "POST /dbconn/compare.jsp HTTP/1.1" 200 116
0:0:0:0:0:0:0:1 - - [25/Nov/2018:20:01:55 +0900] "POST /dbconn/compare.jsp HTTP/1.1" 200 116
0:0:0:0:0:0:0:1 - - [25/Nov/2018:20:01:59 +0900] "POST /dbconn/compare.jsp HTTP/1.1" 200 116
0:0:0:0:0:0:0:1 - - [25/Nov/2018:20:01:59 +0900] "GET /favicon.ico HTTP/1.1" 200 21630
0:0:0:0:0:0:0:1 - - [25/Nov/2018:20:02:30 +0900] "POST /dbconn/compare.jsp HTTP/1.1" 200 116
0:0:0:0:0:0:0:1 - - [25/Nov/2018:20:02:33 +0900] "POST /dbconn/compare.jsp HTTP/1.1" 200 116
0:0:0:0:0:0:0:1 - - [25/Nov/2018:20:02:33 +0900] "GET /favicon.ico HTTP/1.1" 200 21630
0:0:0:0:0:0:0:1 - - [25/Nov/2018:20:03:21 +0900] "POST /dbconn/compare.jsp HTTP/1.1" 500 5429
0:0:0:0:0:0:0:1 - - [25/Nov/2018:20:03:59 +0900] "POST /dbconn/compare.jsp HTTP/1.1" 200 116
0:0:0:0:0:0:0:1 - - [25/Nov/2018:20:03:59 +0900] "GET /favicon.ico HTTP/1.1" 200 21630
0:0:0:0:0:0:0:1 - - [25/Nov/2018:20:05:56 +0900] "POST /dbconn/compare.jsp HTTP/1.1" 200 116
0:0:0:0:0:0:0:1 - - [25/Nov/2018:20:05:59 +0900] "POST /dbconn/compare.jsp HTTP/1.1" 200 116
0:0:0:0:0:0:0:1 - - [25/Nov/2018:20:05:59 +0900] "GET /favicon.ico HTTP/1.1" 200 21630
0:0:0:0:0:0:0:1 - - [25/Nov/2018:20:06:11 +0900] "GET /dbconn/list.jsp HTTP/1.1" 200 1445
0:0:0:0:0:0:0:1 - - [25/Nov/2018:20:06:59 +0900] "POST /dbconn/compare.jsp HTTP/1.1" 200 116
0:0:0:0:0:0:0:1 - - [25/Nov/2018:20:07:07 +0900] "POST /dbconn/compare.jsp HTTP/1.1" 200 116
0:0:0:0:0:0:0:1 - - [25/Nov/2018:20:08:12 +0900] "GET /dbconn/login.jsp HTTP/1.1" 200 719
0:0:0:0:0:0:0:1 - - [25/Nov/2018:20:08:12 +0900] "GET /favicon.ico HTTP/1.1" 200 21630
0:0:0:0:0:0:0:1 - - [25/Nov/2018:20:08:13 +0900] "GET /dbconn/login.jsp HTTP/1.1" 200 719
0:0:0:0:0:0:0:1 - - [25/Nov/2018:20:08:13 +0900] "GET /favicon.ico HTTP/1.1" 200 21630
0:0:0:0:0:0:0:1 - - [25/Nov/2018:20:08:19 +0900] "POST /dbconn/compare.jsp HTTP/1.1" 200 116
0:0:0:0:0:0:0:1 - - [25/Nov/2018:20:11:32 +0900] "GET /dbconn/login.jsp HTTP/1.1" 200 719
0:0:0:0:0:0:0:1 - - [25/Nov/2018:20:11:38 +0900] "POST /dbconn/compare.jsp HTTP/1.1" 200 116
0:0:0:0:0:0:0:1 - - [25/Nov/2018:20:12:15 +0900] "POST /dbconn/compare.jsp HTTP/1.1" 200 116
0:0:0:0:0:0:0:1 - - [25/Nov/2018:20:12:15 +0900] "GET /favicon.ico HTTP/1.1" 200 21630
0:0:0:0:0:0:0:1 - - [25/Nov/2018:20:13:09 +0900] "GET /dbconn/login.jsp HTTP/1.1" 200 719
0:0:0:0:0:0:0:1 - - [25/Nov/2018:20:13:09 +0900] "GET /favicon.ico HTTP/1.1" 200 21630
0:0:0:0:0:0:0:1 - - [25/Nov/2018:20:13:27 +0900] "POST /dbconn/compare.jsp HTTP/1.1" 200 116
0:0:0:0:0:0:0:1 - - [25/Nov/2018:20:14:37 +0900] "POST /dbconn/compare.jsp HTTP/1.1" 200 116
0:0:0:0:0:0:0:1 - - [25/Nov/2018:20:14:37 +0900] "GET /favicon.ico HTTP/1.1" 200 21630
0:0:0:0:0:0:0:1 - - [25/Nov/2018:20:14:44 +0900] "POST /dbconn/compare.jsp HTTP/1.1" 200 116
0:0:0:0:0:0:0:1 - - [25/Nov/2018:20:14:59 +0900] "POST /dbconn/compare.jsp HTTP/1.1" 200 116
0:0:0:0:0:0:0:1 - - [25/Nov/2018:20:16:24 +0900] "POST /dbconn/compare.jsp HTTP/1.1" 200 116
0:0:0:0:0:0:0:1 - - [25/Nov/2018:20:16:25 +0900] "GET /favicon.ico HTTP/1.1" 200 21630
0:0:0:0:0:0:0:1 - - [25/Nov/2018:20:16:42 +0900] "POST /dbconn/compare.jsp HTTP/1.1" 200 116
0:0:0:0:0:0:0:1 - - [25/Nov/2018:20:16:46 +0900] "GET /dbconn/login.jsp HTTP/1.1" 200 733
0:0:0:0:0:0:0:1 - - [25/Nov/2018:20:16:46 +0900] "GET /favicon.ico HTTP/1.1" 200 21630
0:0:0:0:0:0:0:1 - - [25/Nov/2018:20:19:02 +0900] "POST /dbconn/compare.jsp HTTP/1.1" 500 2588
0:0:0:0:0:0:0:1 - - [25/Nov/2018:20:19:12 +0900] "POST /dbconn/compare.jsp HTTP/1.1" 200 202
0:0:0:0:0:0:0:1 - - [25/Nov/2018:20:19:13 +0900] "GET /dbconn/list.jsp HTTP/1.1" 200 1445
0:0:0:0:0:0:0:1 - - [25/Nov/2018:20:47:41 +0900] "POST /dbconn/compare.jsp HTTP/1.1" 200 197
0:0:0:0:0:0:0:1 - - [25/Nov/2018:20:48:18 +0900] "POST /dbconn/compare.jsp HTTP/1.1" 200 196
0:0:0:0:0:0:0:1 - - [25/Nov/2018:20:48:19 +0900] "GET /dbconn/login.jsp HTTP/1.1" 200 733
0:0:0:0:0:0:0:1 - - [25/Nov/2018:20:56:22 +0900] "GET /dbconn/login.jsp HTTP/1.1" 200 813
0:0:0:0:0:0:0:1 - - [25/Nov/2018:20:56:22 +0900] "GET /favicon.ico HTTP/1.1" 200 21630
0:0:0:0:0:0:0:1 - - [25/Nov/2018:20:56:23 +0900] "GET /dbconn/form1.html HTTP/1.1" 200 1530
0:0:0:0:0:0:0:1 - - [25/Nov/2018:20:56:47 +0900] "GET /dbconn/login.jsp HTTP/1.1" 200 791
0:0:0:0:0:0:0:1 - - [25/Nov/2018:20:56:47 +0900] "GET /favicon.ico HTTP/1.1" 200 21630
0:0:0:0:0:0:0:1 - - [25/Nov/2018:20:56:50 +0900] "POST /dbconn/compare.jsp HTTP/1.1" 200 196
0:0:0:0:0:0:0:1 - - [25/Nov/2018:20:56:51 +0900] "GET /dbconn/login.jsp HTTP/1.1" 200 791
0:0:0:0:0:0:0:1 - - [25/Nov/2018:21:06:36 +0900] "POST /dbconn/compare.jsp HTTP/1.1" 500 3301
0:0:0:0:0:0:0:1 - - [25/Nov/2018:21:07:17 +0900] "POST /dbconn/compare.jsp HTTP/1.1" 500 2604
0:0:0:0:0:0:0:1 - - [25/Nov/2018:21:07:17 +0900] "GET /favicon.ico HTTP/1.1" 200 21630
0:0:0:0:0:0:0:1 - - [25/Nov/2018:21:07:28 +0900] "POST /dbconn/compare.jsp HTTP/1.1" 302 -
0:0:0:0:0:0:0:1 - - [25/Nov/2018:21:07:28 +0900] "GET /dbconn/login.jsp HTTP/1.1" 200 791
0:0:0:0:0:0:0:1 - - [25/Nov/2018:21:07:34 +0900] "GET /dbconn/login.jsp HTTP/1.1" 200 791
0:0:0:0:0:0:0:1 - - [25/Nov/2018:21:07:34 +0900] "GET /favicon.ico HTTP/1.1" 200 21630
0:0:0:0:0:0:0:1 - - [25/Nov/2018:21:07:39 +0900] "POST /dbconn/compare.jsp HTTP/1.1" 302 -
0:0:0:0:0:0:0:1 - - [25/Nov/2018:21:07:40 +0900] "GET /dbconn/login.jsp HTTP/1.1" 200 791
0:0:0:0:0:0:0:1 - - [25/Nov/2018:21:09:49 +0900] "POST /dbconn/compare.jsp HTTP/1.1" 302 -
0:0:0:0:0:0:0:1 - - [25/Nov/2018:21:09:49 +0900] "GET /dbconn/list.jsp HTTP/1.1" 200 1445
0:0:0:0:0:0:0:1 - - [25/Nov/2018:21:10:26 +0900] "POST /dbconn/compare.jsp HTTP/1.1" 200 196
0:0:0:0:0:0:0:1 - - [25/Nov/2018:21:10:28 +0900] "GET /dbconn/login.jsp HTTP/1.1" 200 793
0:0:0:0:0:0:0:1 - - [25/Nov/2018:21:10:33 +0900] "POST /dbconn/compare.jsp HTTP/1.1" 302 -
0:0:0:0:0:0:0:1 - - [25/Nov/2018:21:10:33 +0900] "GET /dbconn/list.jsp HTTP/1.1" 200 1445
0:0:0:0:0:0:0:1 - - [25/Nov/2018:21:14:59 +0900] "GET /dbconn/login.jsp HTTP/1.1" 500 6406
0:0:0:0:0:0:0:1 - - [25/Nov/2018:21:14:59 +0900] "GET /favicon.ico HTTP/1.1" 200 21630
0:0:0:0:0:0:0:1 - - [25/Nov/2018:21:15:00 +0900] "GET /dbconn/login.jsp HTTP/1.1" 200 793
0:0:0:0:0:0:0:1 - - [25/Nov/2018:21:15:00 +0900] "GET /favicon.ico HTTP/1.1" 200 21630
0:0:0:0:0:0:0:1 - - [25/Nov/2018:21:15:07 +0900] "POST /dbconn/compare.jsp HTTP/1.1" 302 -
0:0:0:0:0:0:0:1 - - [25/Nov/2018:21:15:07 +0900] "GET /dbconn/list.jsp HTTP/1.1" 200 1445
0:0:0:0:0:0:0:1 - - [25/Nov/2018:21:15:38 +0900] "POST /dbconn/compare.jsp HTTP/1.1" 302 -
0:0:0:0:0:0:0:1 - - [25/Nov/2018:21:15:38 +0900] "GET /dbconn/login.jsp HTTP/1.1" 500 6406
0:0:0:0:0:0:0:1 - - [25/Nov/2018:21:16:04 +0900] "GET /dbconn/login.jsp HTTP/1.1" 500 3878
0:0:0:0:0:0:0:1 - - [25/Nov/2018:21:16:04 +0900] "GET /favicon.ico HTTP/1.1" 200 21630
0:0:0:0:0:0:0:1 - - [25/Nov/2018:21:16:31 +0900] "GET /dbconn/login.jsp HTTP/1.1" 500 3161
0:0:0:0:0:0:0:1 - - [25/Nov/2018:21:16:31 +0900] "GET /favicon.ico HTTP/1.1" 200 21630
0:0:0:0:0:0:0:1 - - [25/Nov/2018:21:16:42 +0900] "GET /dbconn/login.jsp HTTP/1.1" 500 3161
0:0:0:0:0:0:0:1 - - [25/Nov/2018:21:16:42 +0900] "GET /favicon.ico HTTP/1.1" 200 21630
0:0:0:0:0:0:0:1 - - [25/Nov/2018:21:16:46 +0900] "GET /dbconn/login.jsp HTTP/1.1" 500 3161
0:0:0:0:0:0:0:1 - - [25/Nov/2018:21:16:55 +0900] "GET /dbconn/login.jsp HTTP/1.1" 500 3161
0:0:0:0:0:0:0:1 - - [25/Nov/2018:21:17:26 +0900] "GET /dbconn/login.jsp HTTP/1.1" 200 906
0:0:0:0:0:0:0:1 - - [25/Nov/2018:21:17:26 +0900] "GET /favicon.ico HTTP/1.1" 200 21630
0:0:0:0:0:0:0:1 - - [25/Nov/2018:21:17:38 +0900] "GET /dbconn/login.jsp HTTP/1.1" 200 906
0:0:0:0:0:0:0:1 - - [25/Nov/2018:21:20:17 +0900] "GET /dbconn/login.jsp HTTP/1.1" 200 1103
0:0:0:0:0:0:0:1 - - [25/Nov/2018:21:20:17 +0900] "GET /favicon.ico HTTP/1.1" 200 21630
0:0:0:0:0:0:0:1 - - [25/Nov/2018:21:20:39 +0900] "GET /dbconn/login.jsp HTTP/1.1" 200 1104
0:0:0:0:0:0:0:1 - - [25/Nov/2018:21:20:39 +0900] "GET /favicon.ico HTTP/1.1" 200 21630
0:0:0:0:0:0:0:1 - - [25/Nov/2018:21:20:39 +0900] "GET /dbconn/login.jsp HTTP/1.1" 200 1104
0:0:0:0:0:0:0:1 - - [25/Nov/2018:21:20:39 +0900] "GET /favicon.ico HTTP/1.1" 200 21630
0:0:0:0:0:0:0:1 - - [25/Nov/2018:21:22:56 +0900] "GET /dbconn/login.jsp HTTP/1.1" 200 1176
0:0:0:0:0:0:0:1 - - [25/Nov/2018:21:22:57 +0900] "GET /favicon.ico HTTP/1.1" 200 21630
0:0:0:0:0:0:0:1 - - [25/Nov/2018:21:22:58 +0900] "GET /dbconn/login.jsp HTTP/1.1" 200 1176
0:0:0:0:0:0:0:1 - - [25/Nov/2018:21:22:58 +0900] "GET /favicon.ico HTTP/1.1" 200 21630
0:0:0:0:0:0:0:1 - - [25/Nov/2018:21:22:59 +0900] "GET /dbconn/list.jsp HTTP/1.1" 200 1445
0:0:0:0:0:0:0:1 - - [25/Nov/2018:21:23:50 +0900] "GET /dbconn/login.jsp HTTP/1.1" 200 1196
0:0:0:0:0:0:0:1 - - [25/Nov/2018:21:23:50 +0900] "GET /favicon.ico HTTP/1.1" 200 21630
0:0:0:0:0:0:0:1 - - [25/Nov/2018:21:23:51 +0900] "GET /dbconn/login.jsp HTTP/1.1" 200 1196
0:0:0:0:0:0:0:1 - - [25/Nov/2018:21:23:51 +0900] "GET /favicon.ico HTTP/1.1" 200 21630
0:0:0:0:0:0:0:1 - - [25/Nov/2018:21:24:10 +0900] "GET /dbconn/login.jsp HTTP/1.1" 200 1230
0:0:0:0:0:0:0:1 - - [25/Nov/2018:21:24:10 +0900] "GET /favicon.ico HTTP/1.1" 200 21630
0:0:0:0:0:0:0:1 - - [25/Nov/2018:21:24:40 +0900] "GET /dbconn/login.jsp HTTP/1.1" 200 1173
0:0:0:0:0:0:0:1 - - [25/Nov/2018:21:24:40 +0900] "GET /favicon.ico HTTP/1.1" 200 21630
0:0:0:0:0:0:0:1 - - [25/Nov/2018:21:26:52 +0900] "GET /dbconn/login.jsp HTTP/1.1" 200 1199
0:0:0:0:0:0:0:1 - - [25/Nov/2018:21:26:52 +0900] "GET /favicon.ico HTTP/1.1" 200 21630
0:0:0:0:0:0:0:1 - - [25/Nov/2018:21:26:53 +0900] "GET /dbconn/login.jsp HTTP/1.1" 200 1199
0:0:0:0:0:0:0:1 - - [25/Nov/2018:21:26:53 +0900] "GET /favicon.ico HTTP/1.1" 200 21630
0:0:0:0:0:0:0:1 - - [25/Nov/2018:21:27:17 +0900] "GET /dbconn/login.jsp HTTP/1.1" 200 1203
0:0:0:0:0:0:0:1 - - [25/Nov/2018:21:27:17 +0900] "GET /favicon.ico HTTP/1.1" 200 21630
0:0:0:0:0:0:0:1 - - [25/Nov/2018:21:27:17 +0900] "GET /dbconn/login.jsp HTTP/1.1" 200 1203
0:0:0:0:0:0:0:1 - - [25/Nov/2018:21:27:17 +0900] "GET /favicon.ico HTTP/1.1" 200 21630
0:0:0:0:0:0:0:1 - - [25/Nov/2018:21:27:17 +0900] "GET /dbconn/login.jsp HTTP/1.1" 200 1203
0:0:0:0:0:0:0:1 - - [25/Nov/2018:21:27:17 +0900] "GET /favicon.ico HTTP/1.1" 200 21630
0:0:0:0:0:0:0:1 - - [25/Nov/2018:21:27:17 +0900] "GET /dbconn/login.jsp HTTP/1.1" 200 1203
0:0:0:0:0:0:0:1 - - [25/Nov/2018:21:27:18 +0900] "GET /favicon.ico HTTP/1.1" 200 21630
0:0:0:0:0:0:0:1 - - [25/Nov/2018:21:27:56 +0900] "GET /dbconn/login.jsp HTTP/1.1" 200 1218
0:0:0:0:0:0:0:1 - - [25/Nov/2018:21:27:56 +0900] "GET /favicon.ico HTTP/1.1" 200 21630
0:0:0:0:0:0:0:1 - - [25/Nov/2018:21:27:57 +0900] "GET /dbconn/login.jsp HTTP/1.1" 200 1218
0:0:0:0:0:0:0:1 - - [25/Nov/2018:21:27:57 +0900] "GET /favicon.ico HTTP/1.1" 200 21630
0:0:0:0:0:0:0:1 - - [25/Nov/2018:21:28:03 +0900] "GET /dbconn/login.jsp HTTP/1.1" 200 1218
0:0:0:0:0:0:0:1 - - [25/Nov/2018:21:28:03 +0900] "GET /favicon.ico HTTP/1.1" 200 21630
0:0:0:0:0:0:0:1 - - [25/Nov/2018:21:28:18 +0900] "GET /dbconn/login.jsp HTTP/1.1" 200 1218
0:0:0:0:0:0:0:1 - - [25/Nov/2018:21:28:18 +0900] "GET /favicon.ico HTTP/1.1" 200 21630
0:0:0:0:0:0:0:1 - - [25/Nov/2018:21:28:45 +0900] "GET /dbconn/login.jsp HTTP/1.1" 200 1211
0:0:0:0:0:0:0:1 - - [25/Nov/2018:21:28:45 +0900] "GET /favicon.ico HTTP/1.1" 200 21630
0:0:0:0:0:0:0:1 - - [25/Nov/2018:21:28:45 +0900] "GET /dbconn/login.jsp HTTP/1.1" 200 1211
0:0:0:0:0:0:0:1 - - [25/Nov/2018:21:28:45 +0900] "GET /favicon.ico HTTP/1.1" 200 21630
0:0:0:0:0:0:0:1 - - [25/Nov/2018:21:29:07 +0900] "GET /dbconn/login.jsp HTTP/1.1" 200 1199
0:0:0:0:0:0:0:1 - - [25/Nov/2018:21:29:07 +0900] "GET /favicon.ico HTTP/1.1" 200 21630
0:0:0:0:0:0:0:1 - - [25/Nov/2018:21:29:39 +0900] "GET /dbconn/login.jsp HTTP/1.1" 200 1223
0:0:0:0:0:0:0:1 - - [25/Nov/2018:21:29:39 +0900] "GET /favicon.ico HTTP/1.1" 200 21630
0:0:0:0:0:0:0:1 - - [25/Nov/2018:21:29:39 +0900] "GET /dbconn/login.jsp HTTP/1.1" 200 1223
0:0:0:0:0:0:0:1 - - [25/Nov/2018:21:29:39 +0900] "GET /favicon.ico HTTP/1.1" 200 21630
0:0:0:0:0:0:0:1 - - [25/Nov/2018:21:29:40 +0900] "GET /dbconn/login.jsp HTTP/1.1" 200 1223
0:0:0:0:0:0:0:1 - - [25/Nov/2018:21:29:40 +0900] "GET /favicon.ico HTTP/1.1" 200 21630
0:0:0:0:0:0:0:1 - - [25/Nov/2018:21:30:16 +0900] "GET /dbconn/login.jsp HTTP/1.1" 200 1230
0:0:0:0:0:0:0:1 - - [25/Nov/2018:21:30:17 +0900] "GET /favicon.ico HTTP/1.1" 200 21630
0:0:0:0:0:0:0:1 - - [25/Nov/2018:21:30:39 +0900] "GET /dbconn/login.jsp HTTP/1.1" 200 1187
0:0:0:0:0:0:0:1 - - [25/Nov/2018:21:30:39 +0900] "GET /favicon.ico HTTP/1.1" 200 21630
0:0:0:0:0:0:0:1 - - [25/Nov/2018:21:30:40 +0900] "GET /dbconn/login.jsp HTTP/1.1" 200 1187
0:0:0:0:0:0:0:1 - - [25/Nov/2018:21:30:40 +0900] "GET /favicon.ico HTTP/1.1" 200 21630
0:0:0:0:0:0:0:1 - - [25/Nov/2018:21:32:09 +0900] "GET /dbconn/login.jsp HTTP/1.1" 200 1256
0:0:0:0:0:0:0:1 - - [25/Nov/2018:21:32:09 +0900] "GET /favicon.ico HTTP/1.1" 200 21630
0:0:0:0:0:0:0:1 - - [25/Nov/2018:21:34:45 +0900] "GET /dbconn/login.jsp HTTP/1.1" 500 2989
0:0:0:0:0:0:0:1 - - [25/Nov/2018:21:34:45 +0900] "GET /favicon.ico HTTP/1.1" 200 21630
0:0:0:0:0:0:0:1 - - [25/Nov/2018:21:35:06 +0900] "GET /dbconn/login.jsp HTTP/1.1" 200 1258
0:0:0:0:0:0:0:1 - - [25/Nov/2018:21:35:06 +0900] "GET /favicon.ico HTTP/1.1" 200 21630
0:0:0:0:0:0:0:1 - - [25/Nov/2018:21:35:11 +0900] "GET /dbconn/login.jsp HTTP/1.1" 200 1258
0:0:0:0:0:0:0:1 - - [25/Nov/2018:21:35:11 +0900] "GET /favicon.ico HTTP/1.1" 200 21630
0:0:0:0:0:0:0:1 - - [25/Nov/2018:21:35:30 +0900] "GET /dbconn/login.jsp HTTP/1.1" 200 1254
0:0:0:0:0:0:0:1 - - [25/Nov/2018:21:35:31 +0900] "GET /favicon.ico HTTP/1.1" 200 21630
0:0:0:0:0:0:0:1 - - [25/Nov/2018:21:37:37 +0900] "GET /dbconn/login.jsp HTTP/1.1" 200 1254
0:0:0:0:0:0:0:1 - - [25/Nov/2018:21:37:37 +0900] "GET /favicon.ico HTTP/1.1" 200 21630
0:0:0:0:0:0:0:1 - - [25/Nov/2018:21:37:38 +0900] "GET /dbconn/login.jsp HTTP/1.1" 200 1254
0:0:0:0:0:0:0:1 - - [25/Nov/2018:21:37:38 +0900] "GET /favicon.ico HTTP/1.1" 200 21630
0:0:0:0:0:0:0:1 - - [25/Nov/2018:21:37:44 +0900] "GET /dbconn/login.jsp HTTP/1.1" 200 1254
0:0:0:0:0:0:0:1 - - [25/Nov/2018:21:37:44 +0900] "GET /favicon.ico HTTP/1.1" 200 21630
0:0:0:0:0:0:0:1 - - [25/Nov/2018:21:37:56 +0900] "GET /dbconn/list.jsp HTTP/1.1" 200 1445
0:0:0:0:0:0:0:1 - - [25/Nov/2018:21:38:37 +0900] "GET /dbconn/login.jsp HTTP/1.1" 200 1254
0:0:0:0:0:0:0:1 - - [25/Nov/2018:21:38:37 +0900] "GET /favicon.ico HTTP/1.1" 200 21630
0:0:0:0:0:0:0:1 - - [25/Nov/2018:21:38:57 +0900] "GET /dbconn/login.jsp HTTP/1.1" 200 1254
0:0:0:0:0:0:0:1 - - [25/Nov/2018:21:38:57 +0900] "GET /favicon.ico HTTP/1.1" 200 21630
0:0:0:0:0:0:0:1 - - [25/Nov/2018:21:39:20 +0900] "GET /dbconn/login.jsp HTTP/1.1" 200 1270
0:0:0:0:0:0:0:1 - - [25/Nov/2018:21:39:20 +0900] "GET /favicon.ico HTTP/1.1" 200 21630
0:0:0:0:0:0:0:1 - - [25/Nov/2018:21:39:21 +0900] "GET /dbconn/logout.jsp HTTP/1.1" 302 -
0:0:0:0:0:0:0:1 - - [25/Nov/2018:21:39:21 +0900] "GET /dbconn/login.jsp HTTP/1.1" 200 804
0:0:0:0:0:0:0:1 - - [25/Nov/2018:21:39:28 +0900] "POST /dbconn/compare.jsp HTTP/1.1" 200 196
0:0:0:0:0:0:0:1 - - [25/Nov/2018:21:39:28 +0900] "GET /dbconn/login.jsp HTTP/1.1" 200 804
0:0:0:0:0:0:0:1 - - [25/Nov/2018:21:39:34 +0900] "POST /dbconn/compare.jsp HTTP/1.1" 302 -
0:0:0:0:0:0:0:1 - - [25/Nov/2018:21:39:34 +0900] "GET /dbconn/login.jsp HTTP/1.1" 200 1270
0:0:0:0:0:0:0:1 - - [25/Nov/2018:21:39:58 +0900] "GET /dbconn/list.jsp HTTP/1.1" 200 1445
0:0:0:0:0:0:0:1 - - [25/Nov/2018:21:40:01 +0900] "GET /dbconn/detail.jsp?fid=alangely HTTP/1.1" 200 979
0:0:0:0:0:0:0:1 - - [25/Nov/2018:21:40:03 +0900] "GET /dbconn/edit.jsp?fid=alangely HTTP/1.1" 200 1725
0:0:0:0:0:0:0:1 - - [25/Nov/2018:21:40:11 +0900] "POST /dbconn/update.jsp?fid=alangely HTTP/1.1" 200 511
0:0:0:0:0:0:0:1 - - [25/Nov/2018:21:40:14 +0900] "GET /dbconn/detail.jsp?fid=alangely HTTP/1.1" 200 979
0:0:0:0:0:0:0:1 - - [25/Nov/2018:21:40:29 +0900] "GET /dbconn/edit.jsp?fid=alangely HTTP/1.1" 200 1725
0:0:0:0:0:0:0:1 - - [25/Nov/2018:21:40:30 +0900] "POST /dbconn/update.jsp?fid=alangely HTTP/1.1" 200 448
0:0:0:0:0:0:0:1 - - [25/Nov/2018:21:40:34 +0900] "GET /dbconn/detail.jsp?fid=alangely HTTP/1.1" 200 979
0:0:0:0:0:0:0:1 - - [25/Nov/2018:21:40:37 +0900] "GET /dbconn/edit.jsp?fid=alangely HTTP/1.1" 200 1725
0:0:0:0:0:0:0:1 - - [25/Nov/2018:21:40:38 +0900] "POST /dbconn/update.jsp?fid=alangely HTTP/1.1" 200 447
0:0:0:0:0:0:0:1 - - [25/Nov/2018:21:40:41 +0900] "GET /dbconn/detail.jsp?fid=alangely HTTP/1.1" 200 979
0:0:0:0:0:0:0:1 - - [25/Nov/2018:21:40:50 +0900] "GET /dbconn/edit.jsp?fid=alangely HTTP/1.1" 200 1725
0:0:0:0:0:0:0:1 - - [25/Nov/2018:21:40:54 +0900] "POST /dbconn/update.jsp?fid=alangely HTTP/1.1" 200 224
0:0:0:0:0:0:0:1 - - [25/Nov/2018:21:40:57 +0900] "GET /dbconn/detail.jsp?fid=alangely HTTP/1.1" 200 979
0:0:0:0:0:0:0:1 - - [25/Nov/2018:21:41:08 +0900] "GET /dbconn/edit.jsp?fid=alangely HTTP/1.1" 200 1725
0:0:0:0:0:0:0:1 - - [25/Nov/2018:21:41:11 +0900] "POST /dbconn/update.jsp?fid=alangely HTTP/1.1" 200 450
0:0:0:0:0:0:0:1 - - [25/Nov/2018:21:41:14 +0900] "GET /dbconn/detail.jsp?fid=alangely HTTP/1.1" 200 979
0:0:0:0:0:0:0:1 - - [25/Nov/2018:21:41:28 +0900] "GET /dbconn/edit.jsp?fid=alangely HTTP/1.1" 200 1725
0:0:0:0:0:0:0:1 - - [25/Nov/2018:21:41:31 +0900] "POST /dbconn/update.jsp?fid=alangely HTTP/1.1" 200 224
0:0:0:0:0:0:0:1 - - [25/Nov/2018:21:41:34 +0900] "GET /dbconn/detail.jsp?fid=alangely HTTP/1.1" 200 979
0:0:0:0:0:0:0:1 - - [25/Nov/2018:21:41:37 +0900] "GET /dbconn/list.jsp HTTP/1.1" 200 1445
0:0:0:0:0:0:0:1 - - [25/Nov/2018:21:41:39 +0900] "GET /dbconn/detail.jsp?fid=alangely HTTP/1.1" 200 979
0:0:0:0:0:0:0:1 - - [25/Nov/2018:21:41:41 +0900] "GET /dbconn/edit.jsp?fid=alangely HTTP/1.1" 200 1725
0:0:0:0:0:0:0:1 - - [25/Nov/2018:21:42:02 +0900] "POST /dbconn/update.jsp?fid=alangely HTTP/1.1" 200 451
0:0:0:0:0:0:0:1 - - [25/Nov/2018:21:42:06 +0900] "GET /dbconn/detail.jsp?fid=alangely HTTP/1.1" 200 982
0:0:0:0:0:0:0:1 - - [25/Nov/2018:21:42:19 +0900] "GET /dbconn/edit.jsp?fid=alangely HTTP/1.1" 200 1728
0:0:0:0:0:0:0:1 - - [25/Nov/2018:21:42:23 +0900] "POST /dbconn/update.jsp?fid=alangely HTTP/1.1" 200 448
0:0:0:0:0:0:0:1 - - [25/Nov/2018:21:42:26 +0900] "GET /dbconn/detail.jsp?fid=alangely HTTP/1.1" 200 979
0:0:0:0:0:0:0:1 - - [25/Nov/2018:21:42:50 +0900] "GET /dbconn/edit.jsp?fid=alangely HTTP/1.1" 200 1725
0:0:0:0:0:0:0:1 - - [25/Nov/2018:21:42:57 +0900] "POST /dbconn/update.jsp?fid=alangely HTTP/1.1" 200 524
0:0:0:0:0:0:0:1 - - [25/Nov/2018:21:43:00 +0900] "GET /dbconn/detail.jsp?fid=alangely HTTP/1.1" 200 1009
0:0:0:0:0:0:0:1 - - [25/Nov/2018:21:43:09 +0900] "GET /dbconn/edit.jsp?fid=alangely HTTP/1.1" 200 1755
0:0:0:0:0:0:0:1 - - [25/Nov/2018:21:43:15 +0900] "POST /dbconn/update.jsp?fid=alangely HTTP/1.1" 200 448
0:0:0:0:0:0:0:1 - - [25/Nov/2018:21:43:19 +0900] "GET /dbconn/detail.jsp?fid=alangely HTTP/1.1" 200 979
0:0:0:0:0:0:0:1 - - [25/Nov/2018:21:43:26 +0900] "GET /dbconn/edit.jsp?fid=alangely HTTP/1.1" 200 1725
0:0:0:0:0:0:0:1 - - [25/Nov/2018:21:43:31 +0900] "POST /dbconn/update.jsp?fid=alangely HTTP/1.1" 200 448
0:0:0:0:0:0:0:1 - - [25/Nov/2018:21:43:35 +0900] "GET /dbconn/detail.jsp?fid=alangely HTTP/1.1" 200 979
0:0:0:0:0:0:0:1 - - [25/Nov/2018:21:45:34 +0900] "GET /dbconn/edit.jsp?fid=alangely HTTP/1.1" 200 1725
0:0:0:0:0:0:0:1 - - [25/Nov/2018:21:45:39 +0900] "POST /dbconn/update.jsp?fid=alangely HTTP/1.1" 200 448
0:0:0:0:0:0:0:1 - - [25/Nov/2018:21:45:42 +0900] "GET /dbconn/detail.jsp?fid=alangely HTTP/1.1" 200 979
0:0:0:0:0:0:0:1 - - [25/Nov/2018:21:45:56 +0900] "GET /dbconn/list.jsp HTTP/1.1" 200 1445
0:0:0:0:0:0:0:1 - - [25/Nov/2018:21:45:57 +0900] "GET /dbconn/form1.html HTTP/1.1" 304 -
0:0:0:0:0:0:0:1 - - [25/Nov/2018:21:46:42 +0900] "GET /dbconn/form1.html HTTP/1.1" 200 1582
0:0:0:0:0:0:0:1 - - [25/Nov/2018:21:46:42 +0900] "GET /favicon.ico HTTP/1.1" 200 21630
0:0:0:0:0:0:0:1 - - [25/Nov/2018:21:46:43 +0900] "GET /dbconn/login.jsp HTTP/1.1" 200 1270
0:0:0:0:0:0:0:1 - - [25/Nov/2018:21:50:16 +0900] "GET /dbconn/logout.jsp HTTP/1.1" 302 -
0:0:0:0:0:0:0:1 - - [25/Nov/2018:21:50:16 +0900] "GET /dbconn/login.jsp HTTP/1.1" 200 804
0:0:0:0:0:0:0:1 - - [25/Nov/2018:21:50:25 +0900] "POST /dbconn/compare.jsp HTTP/1.1" 302 -
0:0:0:0:0:0:0:1 - - [25/Nov/2018:21:50:25 +0900] "GET /dbconn/login.jsp HTTP/1.1" 200 1269
0:0:0:0:0:0:0:1 - - [25/Nov/2018:21:50:28 +0900] "GET /dbconn/logout.jsp HTTP/1.1" 302 -
0:0:0:0:0:0:0:1 - - [25/Nov/2018:21:50:28 +0900] "GET /dbconn/login.jsp HTTP/1.1" 200 804
0:0:0:0:0:0:0:1 - - [25/Nov/2018:21:52:15 +0900] "GET /dbconn/login.jsp HTTP/1.1" 500 2886
0:0:0:0:0:0:0:1 - - [25/Nov/2018:21:52:16 +0900] "GET /favicon.ico HTTP/1.1" 200 21630
0:0:0:0:0:0:0:1 - - [25/Nov/2018:21:52:40 +0900] "GET /dbconn/login.jsp HTTP/1.1" 200 804
0:0:0:0:0:0:0:1 - - [25/Nov/2018:21:52:40 +0900] "GET /favicon.ico HTTP/1.1" 200 21630
0:0:0:0:0:0:0:1 - - [25/Nov/2018:21:53:02 +0900] "POST /dbconn/compare.jsp HTTP/1.1" 302 -
0:0:0:0:0:0:0:1 - - [25/Nov/2018:21:53:02 +0900] "GET /dbconn/login.jsp HTTP/1.1" 200 1358
0:0:0:0:0:0:0:1 - - [25/Nov/2018:21:53:03 +0900] "GET /dbconn/detail.jsp HTTP/1.1" 200 371
0:0:0:0:0:0:0:1 - - [25/Nov/2018:22:22:33 +0900] "GET /dbconn/login.jsp HTTP/1.1" 200 1358
0:0:0:0:0:0:0:1 - - [25/Nov/2018:22:22:33 +0900] "GET /favicon.ico HTTP/1.1" 200 21630
0:0:0:0:0:0:0:1 - - [25/Nov/2018:22:22:34 +0900] "GET /dbconn/login.jsp HTTP/1.1" 200 1358
0:0:0:0:0:0:0:1 - - [25/Nov/2018:22:22:34 +0900] "GET /favicon.ico HTTP/1.1" 200 21630
0:0:0:0:0:0:0:1 - - [25/Nov/2018:22:22:42 +0900] "GET /dbconn/login.jsp HTTP/1.1" 200 1268
0:0:0:0:0:0:0:1 - - [25/Nov/2018:22:22:42 +0900] "GET /favicon.ico HTTP/1.1" 200 21630
0:0:0:0:0:0:0:1 - - [25/Nov/2018:22:26:54 +0900] "POST /dbconn/compare.jsp HTTP/1.1" 200 218
0:0:0:0:0:0:0:1 - - [25/Nov/2018:22:26:55 +0900] "GET /dbconn/login.jsp HTTP/1.1" 200 1268
0:0:0:0:0:0:0:1 - - [25/Nov/2018:22:27:00 +0900] "POST /dbconn/compare.jsp HTTP/1.1" 200 218
0:0:0:0:0:0:0:1 - - [25/Nov/2018:22:27:01 +0900] "GET /dbconn/login.jsp HTTP/1.1" 200 1268
0:0:0:0:0:0:0:1 - - [25/Nov/2018:22:27:12 +0900] "POST /dbconn/compare.jsp HTTP/1.1" 302 -
0:0:0:0:0:0:0:1 - - [25/Nov/2018:22:27:12 +0900] "GET /dbconn/login.jsp HTTP/1.1" 200 1269
0:0:0:0:0:0:0:1 - - [25/Nov/2018:22:27:29 +0900] "POST /dbconn/compare.jsp HTTP/1.1" 200 218
0:0:0:0:0:0:0:1 - - [25/Nov/2018:22:27:31 +0900] "GET /dbconn/login.jsp HTTP/1.1" 200 1269
0:0:0:0:0:0:0:1 - - [25/Nov/2018:22:27:32 +0900] "POST /dbconn/compare.jsp HTTP/1.1" 200 218
0:0:0:0:0:0:0:1 - - [25/Nov/2018:22:27:33 +0900] "GET /dbconn/login.jsp HTTP/1.1" 200 1269
0:0:0:0:0:0:0:1 - - [25/Nov/2018:22:32:40 +0900] "POST /dbconn/compare.jsp HTTP/1.1" 302 -
0:0:0:0:0:0:0:1 - - [25/Nov/2018:22:32:40 +0900] "GET /dbconn/login.jsp HTTP/1.1" 200 1364
0:0:0:0:0:0:0:1 - - [25/Nov/2018:22:32:45 +0900] "GET /dbconn/list.jsp HTTP/1.1" 200 1445
0:0:0:0:0:0:0:1 - - [25/Nov/2018:22:32:49 +0900] "GET /dbconn/logout.jsp HTTP/1.1" 302 -
0:0:0:0:0:0:0:1 - - [25/Nov/2018:22:32:49 +0900] "GET /dbconn/login.jsp HTTP/1.1" 200 900
0:0:0:0:0:0:0:1 - - [25/Nov/2018:22:32:55 +0900] "POST /dbconn/compare.jsp HTTP/1.1" 200 218
0:0:0:0:0:0:0:1 - - [25/Nov/2018:22:32:57 +0900] "GET /dbconn/login.jsp HTTP/1.1" 200 900
0:0:0:0:0:0:0:1 - - [25/Nov/2018:22:33:01 +0900] "POST /dbconn/compare.jsp HTTP/1.1" 302 -
0:0:0:0:0:0:0:1 - - [25/Nov/2018:22:33:01 +0900] "GET /dbconn/login.jsp HTTP/1.1" 200 1365
0:0:0:0:0:0:0:1 - - [25/Nov/2018:22:37:45 +0900] "GET /dbconn/login.jsp HTTP/1.1" 200 1365
0:0:0:0:0:0:0:1 - - [25/Nov/2018:22:37:45 +0900] "GET /favicon.ico HTTP/1.1" 200 21630
0:0:0:0:0:0:0:1 - - [25/Nov/2018:22:37:46 +0900] "GET /dbconn/findpa.jsp HTTP/1.1" 200 430
0:0:0:0:0:0:0:1 - - [25/Nov/2018:22:40:20 +0900] "GET /dbconn/findpa.jsp HTTP/1.1" 200 569
0:0:0:0:0:0:0:1 - - [25/Nov/2018:22:40:21 +0900] "GET /favicon.ico HTTP/1.1" 200 21630
0:0:0:0:0:0:0:1 - - [25/Nov/2018:22:40:41 +0900] "GET /dbconn/findpa.jsp HTTP/1.1" 200 584
0:0:0:0:0:0:0:1 - - [25/Nov/2018:22:40:42 +0900] "GET /favicon.ico HTTP/1.1" 200 21630
0:0:0:0:0:0:0:1 - - [25/Nov/2018:22:41:12 +0900] "GET /dbconn/findpa.jsp HTTP/1.1" 200 568
0:0:0:0:0:0:0:1 - - [25/Nov/2018:22:41:12 +0900] "GET /favicon.ico HTTP/1.1" 200 21630
0:0:0:0:0:0:0:1 - - [25/Nov/2018:22:41:23 +0900] "GET /dbconn/findpa.jsp HTTP/1.1" 200 568
0:0:0:0:0:0:0:1 - - [25/Nov/2018:22:41:23 +0900] "GET /favicon.ico HTTP/1.1" 200 21630
0:0:0:0:0:0:0:1 - - [25/Nov/2018:22:41:23 +0900] "GET /dbconn/findpa.jsp HTTP/1.1" 200 568
0:0:0:0:0:0:0:1 - - [25/Nov/2018:22:41:23 +0900] "GET /favicon.ico HTTP/1.1" 200 21630
0:0:0:0:0:0:0:1 - - [25/Nov/2018:22:41:23 +0900] "GET /dbconn/findpa.jsp HTTP/1.1" 200 568
0:0:0:0:0:0:0:1 - - [25/Nov/2018:22:41:23 +0900] "GET /favicon.ico HTTP/1.1" 200 21630
0:0:0:0:0:0:0:1 - - [25/Nov/2018:22:41:23 +0900] "GET /dbconn/findpa.jsp HTTP/1.1" 200 568
0:0:0:0:0:0:0:1 - - [25/Nov/2018:22:41:24 +0900] "GET /favicon.ico HTTP/1.1" 200 21630
0:0:0:0:0:0:0:1 - - [25/Nov/2018:22:41:24 +0900] "GET /dbconn/findpa.jsp HTTP/1.1" 200 568
0:0:0:0:0:0:0:1 - - [25/Nov/2018:22:41:24 +0900] "GET /favicon.ico HTTP/1.1" 200 21630
0:0:0:0:0:0:0:1 - - [25/Nov/2018:22:41:40 +0900] "GET /dbconn/findpa.jsp HTTP/1.1" 200 568
0:0:0:0:0:0:0:1 - - [25/Nov/2018:22:41:40 +0900] "GET /favicon.ico HTTP/1.1" 200 21630
0:0:0:0:0:0:0:1 - - [25/Nov/2018:22:41:41 +0900] "GET /dbconn/findpa.jsp HTTP/1.1" 200 568
0:0:0:0:0:0:0:1 - - [25/Nov/2018:22:41:41 +0900] "GET /favicon.ico HTTP/1.1" 200 21630
0:0:0:0:0:0:0:1 - - [25/Nov/2018:22:42:24 +0900] "GET /dbconn/findpa.jsp HTTP/1.1" 200 591
0:0:0:0:0:0:0:1 - - [25/Nov/2018:22:42:24 +0900] "GET /favicon.ico HTTP/1.1" 200 21630
0:0:0:0:0:0:0:1 - - [25/Nov/2018:22:42:55 +0900] "GET /dbconn/findpa.jsp HTTP/1.1" 200 614
0:0:0:0:0:0:0:1 - - [25/Nov/2018:22:42:55 +0900] "GET /favicon.ico HTTP/1.1" 200 21630
0:0:0:0:0:0:0:1 - - [25/Nov/2018:22:43:28 +0900] "GET /dbconn/findpa.jsp HTTP/1.1" 200 614
0:0:0:0:0:0:0:1 - - [25/Nov/2018:22:43:28 +0900] "GET /favicon.ico HTTP/1.1" 200 21630
0:0:0:0:0:0:0:1 - - [25/Nov/2018:22:43:28 +0900] "GET /dbconn/findpa.jsp HTTP/1.1" 200 614
0:0:0:0:0:0:0:1 - - [25/Nov/2018:22:43:28 +0900] "GET /favicon.ico HTTP/1.1" 200 21630
0:0:0:0:0:0:0:1 - - [25/Nov/2018:22:43:28 +0900] "GET /dbconn/findpa.jsp HTTP/1.1" 200 614
0:0:0:0:0:0:0:1 - - [25/Nov/2018:22:43:28 +0900] "GET /favicon.ico HTTP/1.1" 200 21630
0:0:0:0:0:0:0:1 - - [25/Nov/2018:22:43:29 +0900] "GET /dbconn/findpa.jsp HTTP/1.1" 200 614
0:0:0:0:0:0:0:1 - - [25/Nov/2018:22:43:29 +0900] "GET /favicon.ico HTTP/1.1" 200 21630
0:0:0:0:0:0:0:1 - - [25/Nov/2018:22:43:40 +0900] "GET /dbconn/findpa.jsp HTTP/1.1" 200 614
0:0:0:0:0:0:0:1 - - [25/Nov/2018:22:43:40 +0900] "GET /favicon.ico HTTP/1.1" 200 21630
0:0:0:0:0:0:0:1 - - [25/Nov/2018:22:43:40 +0900] "GET /dbconn/findpa.jsp HTTP/1.1" 200 614
0:0:0:0:0:0:0:1 - - [25/Nov/2018:22:43:40 +0900] "GET /favicon.ico HTTP/1.1" 200 21630
0:0:0:0:0:0:0:1 - - [25/Nov/2018:22:43:40 +0900] "GET /dbconn/findpa.jsp HTTP/1.1" 200 614
0:0:0:0:0:0:0:1 - - [25/Nov/2018:22:43:40 +0900] "GET /favicon.ico HTTP/1.1" 200 21630
0:0:0:0:0:0:0:1 - - [25/Nov/2018:22:43:41 +0900] "GET /dbconn/findpa.jsp HTTP/1.1" 200 614
0:0:0:0:0:0:0:1 - - [25/Nov/2018:22:43:41 +0900] "GET /favicon.ico HTTP/1.1" 200 21630
0:0:0:0:0:0:0:1 - - [25/Nov/2018:22:43:41 +0900] "GET /dbconn/findpa.jsp HTTP/1.1" 200 614
0:0:0:0:0:0:0:1 - - [25/Nov/2018:22:43:41 +0900] "GET /favicon.ico HTTP/1.1" 200 21630
0:0:0:0:0:0:0:1 - - [25/Nov/2018:22:43:47 +0900] "GET /dbconn/findpa.jsp HTTP/1.1" 200 614
0:0:0:0:0:0:0:1 - - [25/Nov/2018:22:43:47 +0900] "GET /favicon.ico HTTP/1.1" 200 21630
0:0:0:0:0:0:0:1 - - [25/Nov/2018:22:43:54 +0900] "GET /dbconn/findpa.jsp HTTP/1.1" 200 614
0:0:0:0:0:0:0:1 - - [25/Nov/2018:22:43:54 +0900] "GET /favicon.ico HTTP/1.1" 200 21630
0:0:0:0:0:0:0:1 - - [25/Nov/2018:22:44:03 +0900] "GET /dbconn/findpa.jsp HTTP/1.1" 200 614
0:0:0:0:0:0:0:1 - - [25/Nov/2018:22:44:03 +0900] "GET /favicon.ico HTTP/1.1" 200 21630
0:0:0:0:0:0:0:1 - - [25/Nov/2018:22:44:12 +0900] "GET /dbconn/findpa.jsp HTTP/1.1" 200 614
0:0:0:0:0:0:0:1 - - [25/Nov/2018:22:44:12 +0900] "GET /favicon.ico HTTP/1.1" 200 21630
0:0:0:0:0:0:0:1 - - [25/Nov/2018:22:44:25 +0900] "GET /dbconn/findpa.jsp HTTP/1.1" 200 590
0:0:0:0:0:0:0:1 - - [25/Nov/2018:22:44:25 +0900] "GET /favicon.ico HTTP/1.1" 200 21630
0:0:0:0:0:0:0:1 - - [25/Nov/2018:22:44:25 +0900] "GET /dbconn/findpa.jsp HTTP/1.1" 200 590
0:0:0:0:0:0:0:1 - - [25/Nov/2018:22:44:25 +0900] "GET /favicon.ico HTTP/1.1" 200 21630
0:0:0:0:0:0:0:1 - - [25/Nov/2018:22:44:25 +0900] "GET /dbconn/findpa.jsp HTTP/1.1" 200 590
0:0:0:0:0:0:0:1 - - [25/Nov/2018:22:44:25 +0900] "GET /favicon.ico HTTP/1.1" 200 21630
0:0:0:0:0:0:0:1 - - [25/Nov/2018:22:44:25 +0900] "GET /dbconn/findpa.jsp HTTP/1.1" 200 590
0:0:0:0:0:0:0:1 - - [25/Nov/2018:22:44:25 +0900] "GET /favicon.ico HTTP/1.1" 200 21630
