0:0:0:0:0:0:0:1 - - [16/Dec/2018:15:35:25 +0900] "-" 400 2269
0:0:0:0:0:0:0:1 - - [16/Dec/2018:15:35:25 +0900] "-" 400 2269
0:0:0:0:0:0:0:1 - - [16/Dec/2018:15:35:25 +0900] "-" 400 2269
0:0:0:0:0:0:0:1 - - [16/Dec/2018:15:35:25 +0900] "-" 400 2269
0:0:0:0:0:0:0:1 - - [16/Dec/2018:15:36:53 +0900] "-" 400 2269
0:0:0:0:0:0:0:1 - - [16/Dec/2018:15:36:53 +0900] "-" 400 2269
0:0:0:0:0:0:0:1 - - [16/Dec/2018:15:37:54 +0900] "GET /dbconn/xml/recipe1.jsp HTTP/1.1" 200 5422
0:0:0:0:0:0:0:1 - - [16/Dec/2018:15:38:09 +0900] "GET /dbconn/fileupload/fileUpload.html HTTP/1.1" 200 575
0:0:0:0:0:0:0:1 - - [16/Dec/2018:15:38:34 +0900] "POST /dbconn/fileupload/fileUpload.jsp HTTP/1.1" 500 6867
0:0:0:0:0:0:0:1 - - [16/Dec/2018:15:40:56 +0900] "POST /dbconn/fileupload/fileUpload.jsp HTTP/1.1" 500 6867
0:0:0:0:0:0:0:1 - - [16/Dec/2018:15:40:57 +0900] "GET /favicon.ico HTTP/1.1" 200 21630
0:0:0:0:0:0:0:1 - - [16/Dec/2018:20:37:55 +0900] "GET /dbconn/reserch/resert1.jsp HTTP/1.1" 404 1108
0:0:0:0:0:0:0:1 - - [16/Dec/2018:20:38:09 +0900] "GET /dbconn/reserch/resert.jsp HTTP/1.1" 200 3002
0:0:0:0:0:0:0:1 - - [16/Dec/2018:20:38:28 +0900] "GET /dbconn/reserch/resert2.jsp HTTP/1.1" 200 1487
0:0:0:0:0:0:0:1 - - [16/Dec/2018:20:38:35 +0900] "GET /dbconn/reserch/resert3.jsp HTTP/1.1" 200 2435
0:0:0:0:0:0:0:1 - - [16/Dec/2018:20:38:54 +0900] "GET /dbconn/reserch/resert3.jsp HTTP/1.1" 200 2518
0:0:0:0:0:0:0:1 - - [16/Dec/2018:20:38:54 +0900] "GET /favicon.ico HTTP/1.1" 200 21630
0:0:0:0:0:0:0:1 - - [16/Dec/2018:20:39:08 +0900] "GET /dbconn/reserch/resert3.jsp HTTP/1.1" 200 2435
0:0:0:0:0:0:0:1 - - [16/Dec/2018:20:39:08 +0900] "GET /favicon.ico HTTP/1.1" 200 21630
0:0:0:0:0:0:0:1 - - [16/Dec/2018:20:39:24 +0900] "GET /dbconn/reserch/resert3.jsp HTTP/1.1" 500 3333
0:0:0:0:0:0:0:1 - - [16/Dec/2018:20:39:24 +0900] "GET /favicon.ico HTTP/1.1" 200 21630
0:0:0:0:0:0:0:1 - - [16/Dec/2018:20:39:30 +0900] "GET /dbconn/reserch/resert3.jsp HTTP/1.1" 200 2435
0:0:0:0:0:0:0:1 - - [16/Dec/2018:20:39:30 +0900] "GET /favicon.ico HTTP/1.1" 200 21630
0:0:0:0:0:0:0:1 - - [16/Dec/2018:20:40:14 +0900] "GET /dbconn/reserch/resert3.jsp HTTP/1.1" 200 2518
0:0:0:0:0:0:0:1 - - [16/Dec/2018:20:40:15 +0900] "GET /favicon.ico HTTP/1.1" 200 21630
0:0:0:0:0:0:0:1 - - [16/Dec/2018:20:40:16 +0900] "GET /dbconn/reserch/resert3.jsp HTTP/1.1" 200 2518
0:0:0:0:0:0:0:1 - - [16/Dec/2018:20:40:16 +0900] "GET /favicon.ico HTTP/1.1" 200 21630
0:0:0:0:0:0:0:1 - - [16/Dec/2018:20:40:24 +0900] "GET /dbconn/reserch/resert3.jsp HTTP/1.1" 200 1439
0:0:0:0:0:0:0:1 - - [16/Dec/2018:20:40:24 +0900] "GET /favicon.ico HTTP/1.1" 200 21630
0:0:0:0:0:0:0:1 - - [16/Dec/2018:20:40:31 +0900] "GET /dbconn/reserch/resert3.jsp HTTP/1.1" 200 1625
0:0:0:0:0:0:0:1 - - [16/Dec/2018:20:40:31 +0900] "GET /favicon.ico HTTP/1.1" 200 21630
0:0:0:0:0:0:0:1 - - [16/Dec/2018:20:40:52 +0900] "GET /dbconn/reserch/resert3.jsp HTTP/1.1" 500 2520
0:0:0:0:0:0:0:1 - - [16/Dec/2018:20:40:52 +0900] "GET /favicon.ico HTTP/1.1" 200 21630
0:0:0:0:0:0:0:1 - - [16/Dec/2018:20:41:23 +0900] "GET /dbconn/reserch/resert3.jsp HTTP/1.1" 500 2453
0:0:0:0:0:0:0:1 - - [16/Dec/2018:20:41:23 +0900] "GET /favicon.ico HTTP/1.1" 200 21630
0:0:0:0:0:0:0:1 - - [16/Dec/2018:20:42:17 +0900] "GET /dbconn/reserch/resert3.jsp HTTP/1.1" 500 3712
0:0:0:0:0:0:0:1 - - [16/Dec/2018:20:42:17 +0900] "GET /favicon.ico HTTP/1.1" 200 21630
0:0:0:0:0:0:0:1 - - [16/Dec/2018:20:42:23 +0900] "GET /dbconn/reserch/resert3.jsp HTTP/1.1" 200 2437
0:0:0:0:0:0:0:1 - - [16/Dec/2018:20:42:23 +0900] "GET /favicon.ico HTTP/1.1" 200 21630
0:0:0:0:0:0:0:1 - - [16/Dec/2018:20:42:38 +0900] "GET /dbconn/reserch/resert3.jsp HTTP/1.1" 200 2437
0:0:0:0:0:0:0:1 - - [16/Dec/2018:20:42:38 +0900] "GET /favicon.ico HTTP/1.1" 200 21630
0:0:0:0:0:0:0:1 - - [16/Dec/2018:20:42:41 +0900] "GET /dbconn/reserch/resert3.jsp HTTP/1.1" 200 2437
0:0:0:0:0:0:0:1 - - [16/Dec/2018:20:42:41 +0900] "GET /favicon.ico HTTP/1.1" 200 21630
0:0:0:0:0:0:0:1 - - [16/Dec/2018:20:42:42 +0900] "GET /dbconn/reserch/resert3.jsp HTTP/1.1" 200 2437
0:0:0:0:0:0:0:1 - - [16/Dec/2018:20:42:42 +0900] "GET /favicon.ico HTTP/1.1" 200 21630
0:0:0:0:0:0:0:1 - - [16/Dec/2018:20:42:47 +0900] "GET /dbconn/reserch/resert3.jsp HTTP/1.1" 500 5490
0:0:0:0:0:0:0:1 - - [16/Dec/2018:20:42:47 +0900] "GET /favicon.ico HTTP/1.1" 200 21630
0:0:0:0:0:0:0:1 - - [16/Dec/2018:20:43:22 +0900] "GET /dbconn/reserch/resert3.jsp HTTP/1.1" 500 2964
0:0:0:0:0:0:0:1 - - [16/Dec/2018:20:43:22 +0900] "GET /favicon.ico HTTP/1.1" 200 21630
0:0:0:0:0:0:0:1 - - [16/Dec/2018:20:43:37 +0900] "GET /dbconn/reserch/resert3.jsp HTTP/1.1" 500 2966
0:0:0:0:0:0:0:1 - - [16/Dec/2018:20:43:38 +0900] "GET /favicon.ico HTTP/1.1" 200 21630
0:0:0:0:0:0:0:1 - - [16/Dec/2018:20:44:00 +0900] "GET /dbconn/reserch/resert3.jsp HTTP/1.1" 200 447
0:0:0:0:0:0:0:1 - - [16/Dec/2018:20:44:00 +0900] "GET /favicon.ico HTTP/1.1" 200 21630
0:0:0:0:0:0:0:1 - - [16/Dec/2018:20:44:22 +0900] "GET /dbconn/reserch/resert3.jsp HTTP/1.1" 200 2437
0:0:0:0:0:0:0:1 - - [16/Dec/2018:20:44:22 +0900] "GET /favicon.ico HTTP/1.1" 200 21630
0:0:0:0:0:0:0:1 - - [16/Dec/2018:20:58:32 +0900] "GET /dbconn/xml/login.jsp HTTP/1.1" 200 1678
0:0:0:0:0:0:0:1 - - [16/Dec/2018:20:58:34 +0900] "GET /dbconn/xml/newsignup.html HTTP/1.1" 200 1906
0:0:0:0:0:0:0:1 - - [16/Dec/2018:20:59:00 +0900] "POST /dbconn/xml/insert.jsp HTTP/1.1" 200 204
0:0:0:0:0:0:0:1 - - [16/Dec/2018:20:59:01 +0900] "GET /dbconn/xml/logining.jsp HTTP/1.1" 200 892
0:0:0:0:0:0:0:1 - - [16/Dec/2018:20:59:04 +0900] "GET /dbconn/xml/list.jsp HTTP/1.1" 200 3364
0:0:0:0:0:0:0:1 - - [16/Dec/2018:20:59:20 +0900] "GET /dbconn/xml/list.jsp HTTP/1.1" 200 3359
0:0:0:0:0:0:0:1 - - [16/Dec/2018:20:59:20 +0900] "GET /favicon.ico HTTP/1.1" 200 21630
0:0:0:0:0:0:0:1 - - [16/Dec/2018:21:05:59 +0900] "GET /dbconn/xml/list.jsp HTTP/1.1" 200 3364
0:0:0:0:0:0:0:1 - - [16/Dec/2018:21:06:02 +0900] "GET /dbconn/xml/toplist.jsp HTTP/1.1" 200 6222
0:0:0:0:0:0:0:1 - - [16/Dec/2018:21:06:06 +0900] "GET /dbconn/xml/list.jsp HTTP/1.1" 200 3364
