,날짜,저가,거래량,전일비,고가
0,2018.06.19,827000,2909,1000,855000
1,2018.06.18,827000,5603,9000,869000
2,2018.06.15,855000,5600,19000,885000
3,2018.06.14,874000,13046,8000,911000
4,2018.06.12,875000,4813,2000,890000
5,2018.06.11,878000,6092,0,895000
6,2018.06.08,876000,7881,2000,897000
7,2018.06.07,843000,13220,44000,893000
8,2018.06.05,845000,5920,9000,870000
9,2018.06.04,853000,13615,2000,901000
10,2018.06.01,805000,21285,47000,864000
11,2018.05.31,776000,15818,26000,810000
12,2018.05.30,774000,5093,2000,788000
13,2018.05.29,771000,3430,3000,788000
14,2018.05.28,759000,3091,21000,780000
15,2018.05.25,756000,2844,14000,776000
16,2018.05.24,770000,1941,1000,782000
17,2018.05.23,767000,3317,10000,781000
18,2018.05.21,776000,3003,1000,788000
19,2018.05.18,771000,4761,7000,792000
20,2018.05.17,768000,3971,7000,787000
21,2018.05.16,746000,7726,37000,785000
22,2018.05.15,731000,4527,1000,753000
23,2018.05.14,742000,3040,5000,755000
24,2018.05.11,735000,4397,2000,746000
25,2018.05.10,730000,5398,7000,749000
26,2018.05.09,745000,3164,2000,757000
27,2018.05.08,741000,3604,13000,767000
28,2018.05.04,759000,3622,10000,770000
29,2018.05.03,771000,2563,10000,785000
30,2018.05.02,780000,4077,13000,799000
31,2018.04.30,771000,4334,23000,795000
32,2018.04.27,766000,2510,0,779000
33,2018.04.26,762000,3119,1000,775000
34,2018.04.25,771000,3002,14000,788000
35,2018.04.24,778000,4250,0,791000
36,2018.04.23,767000,4319,4000,789000
37,2018.04.20,773000,2257,7000,783000
38,2018.04.19,769000,3831,4000,785000
39,2018.04.18,775000,3535,11000,793000
40,2018.04.17,777000,5105,9000,790000
41,2018.04.16,764000,6532,20000,786000
42,2018.04.13,750000,3271,11000,770000
43,2018.04.12,770000,2031,2000,780000
44,2018.04.11,768000,3783,4000,778000
45,2018.04.10,766000,4596,4000,782000
46,2018.04.09,762000,4121,9000,775000
47,2018.04.06,755000,3474,1000,770000
48,2018.04.05,761000,4462,2000,775000
49,2018.04.04,750000,7712,5000,780000
50,2018.04.03,728000,13330,30000,769000
51,2018.04.02,714000,7330,25000,740000
52,2018.03.30,709000,6508,1000,719000
53,2018.03.29,704000,1947,1000,714000
54,2018.03.28,701000,1537,4000,717000
55,2018.03.27,708000,2558,3000,717000
56,2018.03.26,696000,2042,7000,714000
57,2018.03.23,703000,4120,23000,718000
58,2018.03.22,721000,2341,4000,729000
59,2018.03.21,722000,2167,1000,727000
60,2018.03.20,721000,2755,1000,729000
61,2018.03.19,720000,1426,4000,730000
62,2018.03.16,720000,3049,6000,733000
63,2018.03.15,716000,3922,10000,737000
64,2018.03.14,714000,3612,2000,725000
65,2018.03.13,719000,4522,8000,734000
66,2018.03.12,732000,3773,2000,743000
67,2018.03.09,733000,5894,3000,755000
68,2018.03.08,695000,15307,47000,740000
69,2018.03.07,684000,3986,4000,700000
70,2018.03.06,695000,2665,1000,703000
71,2018.03.05,695000,2616,2000,705000
72,2018.03.02,697000,5295,9000,707000
73,2018.02.28,707000,4200,16000,726000
74,2018.02.27,716000,5712,7000,730000
75,2018.02.26,712000,5716,10000,733000
76,2018.02.23,700000,7363,26000,729000
77,2018.02.22,693000,2604,3000,700000
78,2018.02.21,695000,2712,3000,702000
79,2018.02.20,693000,2774,5000,700000
80,2018.02.19,686000,4110,15000,703000
81,2018.02.14,680000,8139,0,700000
82,2018.02.13,684000,8804,13000,701000
83,2018.02.12,695000,7474,14000,712000
84,2018.02.09,699000,6590,1000,712000
85,2018.02.08,710000,5011,1000,723000
86,2018.02.07,712000,5590,8000,736000
87,2018.02.06,705000,6410,9000,723000
88,2018.02.05,727000,11918,29000,757000
89,2018.02.02,753000,6662,10000,776000
90,2018.02.01,767000,4917,1000,776000
91,2018.01.31,756000,10050,10000,781000
92,2018.01.30,778000,6416,11000,800000
93,2018.01.29,790000,6572,5000,803000
94,2018.01.26,786000,8225,11000,803000
95,2018.01.25,781000,3402,1000,787000
96,2018.01.24,777000,3150,5000,786000
97,2018.01.23,777000,5013,5000,786000
98,2018.01.22,777000,2169,5000,787000
99,2018.01.19,775000,2792,4000,785000
