키워드,빈도수_x,빈도수_y,빈도수_x,빈도수_y
월드컵,151,132,126,98
경기,104,176,188,164
축구,85,66,74,46
스웨덴,85,152,214,88
러시아,80,62,72,74
한국,78,166,184,178
전,72,72,138,44
기사,70,96,36,92
독일,65,42,68,34
년,65,88,58,66
시간,64,42,40,62
일,61,42,58,42
추천,58,60,60,60
멕시코,53,36,84,34
조,49,34,54,32
것,44,58,130,40
선수,35,68,68,56
뉴스,33,36,46,36
