빈도수,주요단어
977,남북정상회담 후
505,대통령
296,정상회담
273,평화
250,정상
237,판문점
221,북미
197,이후
184,한반도
176,남북
174,북한
169,문재인
160,회의
157,취임
146,개최
145,일본
136,회담
130,선언
126,비핵화
114,기자
113,한국
102,지난
101,공동
97,펀딩
97,그림
93,한효주
93,인스타그램
90,김정은
90,지난달
87,성공
87,중국
83,트럼프
75,협력
74,총리
73,처음
73,한중일
68,장관
68,청와대
63,썰전
62,통화
59,최근
56,미국
53,경제
52,평양
52,정부
43,국민
43,정착
42,관계
42,발표
39,대표
