빈도수,주요단어
872,남북정상회담
438,북한
431,정상회담
342,남북
254,이후
252,북미
217,대통령
209,평화
171,관계
169,그림
168,공사
165,펀딩
165,한효주
165,인스타그램
159,전망
158,한반도
154,국회의원
154,영호
147,회관
136,서울
130,하나
124,기자
123,전문가
122,김정은
118,영국
117,세계
116,주재
109,한국
105,초청강연
104,일오
97,길목
89,자유
84,지난달
82,국회
79,문재인
78,통일
75,사항
74,여의도
72,판문점
71,성공
67,의원
65,개최
60,민주당
60,심재철
58,경의선
58,국무위원
54,이번
53,대표
52,경원선
51,지방선거
