주요단어,뉴스_남북정상회담,뉴스_남북정상회담_전,뉴스_남북정상회담 후,뉴스_북한,뉴스_김정은,뉴스_통일
대통령,317,217,505,216,688,109
정상회담,238,431,296,138,335,84
남북,228,342,176,70,49,348
북미,210,252,221,92,276,83
북한,193,438,174,1901,905,428
기자,193,124,114,115,82,61
한반도,133,158,184,63,74,170
김정은,82,122,90,144,1467,105
한국,55,109,113,110,59,107
