빈도수,주요단어
1901,북한
326,비핵화
273,미국
232,핵실험
216,대통령
187,폐기
183,경제
146,중국
144,김정은
138,계리
138,정상회담
126,종업원
115,기자
110,한국
105,주재
104,탈북
101,문재인
100,영호
97,식당
93,폼페이
92,북미
89,공사
88,국무위원
88,서울
83,보좌
82,영국
78,대한
74,청와대
74,투자
72,기획
71,통일
70,남북
70,앵커
69,뉴스
68,민간
67,억류
67,트럼프
67,전문가
64,미국인
63,장관
63,한반도
61,석방
61,해외
59,핵무기
59,국회의원
56,연합뉴스
56,회의
56,고위
56,변호사
55,회관
