,저가,고가,날짜,거래량,전일비
0,2145,2240,2018.06.19,74268,35
1,2140,2355,2018.06.18,250589,110
2,2280,2375,2018.06.15,151935,60
3,2325,2420,2018.06.14,155695,25
4,2340,2385,2018.06.12,118198,15
5,2325,2385,2018.06.11,185604,20
6,2300,2390,2018.06.08,188938,30
7,2340,2395,2018.06.07,126968,10
8,2325,2390,2018.06.05,116156,5
9,2335,2420,2018.06.04,127779,35
10,2345,2470,2018.06.01,224749,40
11,2285,2440,2018.05.31,211274,125
12,2315,2425,2018.05.30,179952,85
13,2285,2415,2018.05.29,275061,110
14,2260,2400,2018.05.28,116510,45
15,2240,2325,2018.05.25,146181,80
16,2270,2345,2018.05.24,95440,10
17,2265,2370,2018.05.23,97017,0
18,2310,2365,2018.05.21,75985,30
19,2280,2375,2018.05.18,167833,80
20,2220,2325,2018.05.17,125814,65
21,2185,2315,2018.05.16,220949,95
22,2245,2345,2018.05.15,238063,35
23,2315,2455,2018.05.14,207791,100
24,2295,2455,2018.05.11,292932,110
25,2300,2375,2018.05.10,79896,10
26,2220,2350,2018.05.09,166953,20
27,2255,2515,2018.05.08,283673,100
28,2310,2435,2018.05.04,204831,60
29,2370,2490,2018.05.03,362859,105
30,2450,2585,2018.05.02,212462,75
31,2470,2585,2018.04.30,204330,70
32,2460,2530,2018.04.27,82638,35
33,2435,2525,2018.04.26,209910,15
34,2480,2600,2018.04.25,232877,100
35,2550,2640,2018.04.24,270358,10
36,2540,2640,2018.04.23,244562,10
37,2515,2635,2018.04.20,242278,45
38,2470,2580,2018.04.19,329089,5
39,2490,2645,2018.04.18,478361,105
40,2600,2720,2018.04.17,368342,45
41,2545,2735,2018.04.16,902997,135
42,2420,2580,2018.04.13,616990,65
43,2425,2545,2018.04.12,566869,70
44,2275,2670,2018.04.11,3323012,285
45,2200,2275,2018.04.10,348170,60
46,2135,2240,2018.04.09,260205,50
47,2100,2215,2018.04.06,161166,25
48,2155,2220,2018.04.05,116320,35
49,2140,2240,2018.04.04,141013,45
50,2175,2230,2018.04.03,136268,25
51,2150,2265,2018.04.02,640414,80
52,2050,2150,2018.03.30,260470,85
53,2020,2075,2018.03.29,85703,20
54,2010,2055,2018.03.28,111768,10
55,2020,2050,2018.03.27,61862,25
56,1990,2050,2018.03.26,134581,5
57,1970,2065,2018.03.23,213044,70
58,2085,2140,2018.03.22,177006,20
59,2055,2210,2018.03.21,431708,5
60,2045,2150,2018.03.20,162657,35
61,2050,2130,2018.03.19,167363,45
62,1980,2175,2018.03.16,708362,125
63,1955,1990,2018.03.15,119400,20
64,1950,2000,2018.03.14,166367,30
65,1975,2005,2018.03.13,64308,15
66,1960,2015,2018.03.12,144422,20
67,1950,2000,2018.03.09,149458,25
68,1905,1960,2018.03.08,65399,0
69,1915,1985,2018.03.07,120600,20
70,1940,1970,2018.03.06,81864,10
71,1910,1985,2018.03.05,64380,5
72,1880,1995,2018.03.02,100957,25
73,1965,2015,2018.02.28,103138,30
74,1975,2015,2018.02.27,119211,5
75,1990,2050,2018.02.26,78224,15
76,2000,2040,2018.02.23,82154,20
77,1990,2045,2018.02.22,211886,25
78,2045,2150,2018.02.21,274622,70
79,2070,2150,2018.02.20,90015,20
80,2095,2150,2018.02.19,91552,5
81,2095,2160,2018.02.14,89515,15
82,2070,2160,2018.02.13,155365,30
83,2100,2195,2018.02.12,113251,20
84,2095,2185,2018.02.09,270383,85
85,2095,2240,2018.02.08,237033,85
86,2105,2325,2018.02.07,525806,130
87,2000,2340,2018.02.06,910097,40
88,2180,2395,2018.02.05,1389829,100
89,2065,2385,2018.02.02,2263339,240
90,2010,2080,2018.02.01,152872,10
91,1970,2050,2018.01.31,173917,0
92,2020,2100,2018.01.30,89437,30
93,2015,2120,2018.01.29,216957,55
94,1985,2020,2018.01.26,136255,35
95,1955,2000,2018.01.25,98671,10
96,1905,2050,2018.01.24,290729,20
97,1945,1995,2018.01.23,63032,5
98,1930,1975,2018.01.22,49127,10
99,1930,1970,2018.01.19,66277,20
